dump_uvm.vcd
$date
	Sun May 31 08:04:54 2026
$end
$version
	QuestaSim Version 2021.2_1
$end
$timescale
	1ps
$end

$scope module tb_top $end

$scope module dut $end
$var wire 32 ! pc_f [31:0] $end
$var wire 32 " pc_plus_4_f [31:0] $end
$var wire 32 # instr_f [31:0] $end
$var wire 32 $ pc_target_e [31:0] $end
$var wire 1 % pc_src_e $end
$var wire 1 & stall_f $end
$var wire 32 ' instr_d [31:0] $end
$var wire 32 ( pc_d [31:0] $end
$var wire 5 ) rs1_d [4:0] $end
$var wire 5 * rs2_d [4:0] $end
$var wire 5 + rd_d [4:0] $end
$var wire 1 , reg_write_d $end
$var wire 1 - mem_write_d $end
$var wire 1 . jump_d $end
$var wire 1 / branch_d $end
$var wire 1 0 flush_d $end
$var wire 1 1 is_ecall_d $end
$var wire 1 2 is_mret_d $end
$var wire 32 3 pc_e [31:0] $end
$var wire 32 4 alu_result_e [31:0] $end
$var wire 1 5 issue_stall $end
$var wire 1 6 issue_valid $end
$var wire 32 7 alu_result_m [31:0] $end
$var wire 32 8 write_data_m [31:0] $end
$var wire 32 9 read_data_m [31:0] $end
$var wire 3 : funct3_m [2:0] $end
$var wire 1 ; mem_write_m $end
$var wire 3 < result_src_m [2:0] $end
$var wire 32 = result_w [31:0] $end
$var wire 5 > rd_w [4:0] $end
$var wire 1 ? reg_write_w $end
$var wire 32 @ trap_vec [31:0] $end
$var wire 32 A epc [31:0] $end
$var wire 1 B icache_stall $end
$var wire 1 C dcache_stall $end
$var wire 1 D predict_taken_e $end
$var wire 32 E predict_target_e [31:0] $end
$var wire 1 F actual_taken_e $end
$var wire 32 G actual_target_e [31:0] $end
$var wire 32 H i_araddr [31:0] $end
$var wire 32 I i_rdata [31:0] $end
$var wire 2 J i_rresp [1:0] $end
$var wire 1 K i_arvalid $end
$var wire 1 L i_arready $end
$var wire 1 M i_rvalid $end
$var wire 1 N i_rready $end
$var wire 32 O d_awaddr [31:0] $end
$var wire 32 P d_wdata [31:0] $end
$var wire 32 Q d_araddr [31:0] $end
$var wire 32 R d_rdata [31:0] $end
$var wire 4 S d_wstrb [3:0] $end
$var wire 2 T d_bresp [1:0] $end
$var wire 2 U d_rresp [1:0] $end
$var wire 1 V d_awvalid $end
$var wire 1 W d_awready $end
$var wire 1 X d_wvalid $end
$var wire 1 Y d_wready $end
$var wire 1 Z d_bvalid $end
$var wire 1 [ d_bready $end
$var wire 1 \ d_arvalid $end
$var wire 1 ] d_arready $end
$var wire 1 ^ d_rvalid $end
$var wire 1 _ d_rready $end

$scope module decode_stage $end

$scope module register_file $end
$upscope $end
$upscope $end

$scope module issue_stage $end
$var wire 1 ` execute_ready $end
$var wire 1 a load_use_hazard $end
$upscope $end

$scope module sram_macro $end

$scope module EF_SRAM_1024x32_inst $end

$scope begin TSU_TH_NOTIFIER_COND_CLEAR $end
$upscope $end

$scope task rand_init_whole_memory $end
$var integer 32 b l $end
$upscope $end

$scope module memory_mode_inst $end
$var reg 12 c ADreg [11:0] $end
$var reg 12 d ADreg_scan [11:0] $end
$var reg 32 e DIreg [31:0] $end
$var reg 32 f BENreg [31:0] $end
$var reg 1 g ENreg $end
$var reg 1 h R_WBreg $end
$var reg 1 i ENreg_scan $end
$var reg 1 j R_WBreg_scan $end

$scope begin write_data_block $end
$upscope $end

$scope begin read_data_block $end
$upscope $end

$scope task is_Floating_Signal $end
$upscope $end
$upscope $end
$upscope $end
$upscope $end
$upscope $end
$upscope $end
$enddefinitions $end
#0
$dumpvars
bx c
bx d
bx e
bx f
xg
xh
xi
xj
b0 !
b100 "
bx #
b0 $
b0 '
b0 (
b0 )
b0 *
b0 +
b0 3
b0 4
b0 7
b0 8
bx 9
b0 :
b0 <
b0 =
b0 >
bx @
bx A
b0 E
b0 G
b0 H
bx I
b0 J
b0 O
b0 P
b0 Q
bx R
b0 S
b0 T
b0 U
b0 b
0%
x&
0,
0-
0.
0/
00
01
02
x5
x6
0;
0?
xB
xC
0D
0F
0K
0L
0M
0N
0V
0W
0X
0Y
0Z
0[
0\
0]
0^
0_
x`
0a
$end
#6000
b0 #
0C
1B
06
1&
b0 9
1K
1L
#10000
b0 e
b0 c
1g
1h
b0 f
#15000
1`
b0 A
b0 @
05
#20000
b0 d
#325000
0K
1N
0L
1M
#335000
bx #
0B
16
0&
0N
0M
#345000
bx '
b100 !
x2
x1
x.
x/
x-
x,
b1000 "
b0 #
bx )
bx *
bx +
1B
06
1&
1K
b100 H
1L
#350000
b1 c
b100010111 R
b100010111 I
#355000
0K
b0 H
1N
0L
1M
#365000
b100010111 #
0B
16
0&
0N
0M
#375000
x`
xF
xa
b100 (
b0x00 $
x6
x%
x0
b100010111 '
b1000 !
x5
02
01
0.
0/
0-
b1100 "
b0 #
b0 )
b0 *
b10 +
1,
1B
06
1&
1K
b1000 H
1L
#380000
b1 d
b10 c
b11111111011000000000000110010011 R
b11111111011000000000000110010011 I
#385000
1`
0F
0a
x;
b0xx <
b0 $
0%
00
bx 8
bx :
05
xC
x`
x5
0K
b0 H
1N
0L
1M
#395000
0;
b0 <
b11111111011000000000000110010011 #
0B
bx >
b0 8
b0 :
x?
0C
1`
05
16
0&
0N
0M
#405000
b1000 (
b1000 $
b100 3
b100 G
0?
b0 >
b11111111011000000000000110010011 '
b1100 !
b10000 "
b0 #
b10110 *
b11 +
1B
06
1&
1K
b100 4
b1100 H
1L
#410000
b10 d
b11 c
b111100011100001000010011 R
b111100011100001000010011 I
#415000
b0 $
b0 3
b0 G
b100 7
0K
b0 H
b0 4
1N
0L
1M
#425000
b111100011100001000010011 #
0B
b10 >
b0 7
1?
16
0&
0N
b100 =
0M
#435000
b1100 (
b11111111111111111111111111110110 G
b1100 $
b1000 3
b11111111111111111111111111111110 G
0?
b0 >
b111100011100001000010011 '
b10000 !
b10100 "
b0 #
b11 )
b1111 *
b100 +
1B
06
1&
1K
b11111111111111111111111111110110 4
b10000 H
b0 =
1L
#440000
b11 d
b100 c
b111100000110001010010011 R
b111100000110001010010011 I
#445000
b1000 G
b0 $
b0 3
b0 G
b11111111111111111111111111110110 7
0K
b0 H
b0 4
1N
0L
1M
#455000
b111100000110001010010011 #
0B
b11 >
b0 7
1?
16
0&
0N
b11111111111111111111111111110110 =
0M
#465000
b10000 (
b1111 G
b10000 $
b1100 3
b11011 G
0?
b0 >
b111100000110001010010011 '
b10100 !
b11000 "
b0 #
b0 )
b101 +
1B
06
1&
1K
b11111111111111111111111111111001 4
b10100 H
b0 =
1L
#470000
b100 d
b101 c
b111100101111001100010011 R
b111100101111001100010011 I
#475000
b1100 G
b0 $
b0 3
b0 G
b11111111111111111111111111111001 7
b100 :
0K
b0 H
b0 4
1N
0L
1M
#485000
b111100101111001100010011 #
0B
b100 >
b0 7
b0 :
1?
16
0&
0N
b11111111111111111111111111111001 =
0M
#495000
b10100 (
b1111 G
b10100 $
b10000 3
b11111 G
0?
b0 >
b111100101111001100010011 '
b11000 !
b11100 "
b0 #
b101 )
b110 +
1B
06
1&
1K
b1111 4
b11000 H
b0 =
1L
#500000
b101 d
b110 c
b1100100000001110110011 R
b1100100000001110110011 I
#505000
b10000 G
b0 $
b0 3
b0 G
b1111 7
b110 :
0K
b0 H
b0 4
1N
0L
1M
#515000
b1100100000001110110011 #
0B
b101 >
b0 7
b0 :
1?
16
0&
0N
b1111 =
0M
#525000
b11000 (
b1111 G
b11000 $
b10100 3
b100011 G
0?
b0 >
b1100100000001110110011 '
b11100 !
b100000 "
b0 #
b100 )
b11 *
b111 +
1B
06
1&
1K
b1111 4
b11100 H
b0 =
1L
#530000
b110 d
b111 c
b1000000001100100000010000110011 R
b1000000001100100000010000110011 I
#535000
b10100 G
b0 $
b0 3
b0 G
b1111 7
b111 :
0K
b0 H
b0 4
1N
0L
1M
#545000
b1000000001100100000010000110011 #
0B
b110 >
b0 7
b0 :
1?
16
0&
0N
b1111 =
0M
#555000
b11100 (
b11 G
b11100 $
b11000 3
b11011 G
0?
b0 >
b1000000001100100000010000110011 '
b100000 !
b100100 "
b0 #
b1000 +
1B
06
1&
1K
b11111111111111111111111111101111 4
b100000 H
b0 =
1L
#560000
b111 d
b100000000000 c
b10100111111010010110011 R
b10100111111010010110011 I
#565000
b11000 G
b0 $
b0 3
b0 G
b11111111111111111111111111110110 8
b11111111111111111111111111101111 7
0K
b0 H
b0 4
1N
0L
1M
#575000
b10100111111010010110011 #
0B
b111 >
b0 8
b0 7
1?
16
0&
0N
b11111111111111111111111111101111 =
0M
#585000
b100000 (
b10000000011 G
b100000 $
b11100 3
b10000011111 G
0?
b0 >
b10100111111010010110011 '
b100100 !
b101000 "
b0 #
b111 )
b101 *
b1001 +
1B
06
1&
1K
b11 4
b100100 H
b0 =
1L
#590000
b100000000000 d
b100000000001 c
b100000110110010100110011 R
b100000110110010100110011 I
#595000
b11100 G
b0 $
b0 3
b0 G
b11111111111111111111111111110110 8
b11 7
0K
b0 H
b0 4
1N
0L
1M
#605000
b100000110110010100110011 #
0B
b1000 >
b0 8
b0 7
1?
16
0&
0N
b11 =
0M
#615000
b100100 (
b101 G
b100100 $
b100000 3
b100101 G
0?
b0 >
b100000110110010100110011 '
b101000 !
b101100 "
b0 #
b110 )
b1000 *
b1010 +
1B
06
1&
1K
b1111 4
b101000 H
b0 =
1L
#620000
b100000000001 d
b100000000010 c
b100001010100010110110011 R
b100001010100010110110011 I
#625000
b100000 G
b0 $
b0 3
b0 G
b1111 8
b1111 7
b111 :
0K
b0 H
b0 4
1N
0L
1M
#635000
b100001010100010110110011 #
0B
b1001 >
b0 8
b0 7
b0 :
1?
16
0&
0N
b1111 =
0M
#645000
b101000 (
b1000 G
b101000 $
b100100 3
b101100 G
0?
b0 >
b100001010100010110110011 '
b101100 !
b110000 "
b0 #
b1010 )
b1011 +
1B
06
1&
1K
b1111 4
b101100 H
b0 =
1L
#650000
b100000000010 d
b100000000011 c
b1000000000011000010011 R
b1000000000011000010011 I
#655000
b100100 G
b0 $
b0 3
b0 G
b11 8
b1111 7
b110 :
0K
b0 H
b0 4
1N
0L
1M
#665000
b1000000000011000010011 #
0B
b1010 >
b0 8
b0 7
b0 :
1?
16
0&
0N
b1111 =
0M
#675000
b101100 (
b1000 G
b101100 $
b101000 3
b110000 G
0?
b0 >
b1000000000011000010011 '
b110000 !
b110100 "
b0 #
b0 )
b10 *
b1100 +
1B
06
1&
1K
b1100 4
b110000 H
b0 =
1L
#680000
b100000000011 d
b100000000100 c
b1001100001011010010011 R
b1001100001011010010011 I
#685000
b101000 G
b0 $
b0 3
b0 G
b11 8
b1100 7
b100 :
0K
b0 H
b0 4
1N
0L
1M
#695000
b1001100001011010010011 #
0B
b1011 >
b0 8
b0 7
b0 :
1?
16
0&
0N
b1100 =
0M
#705000
b110000 (
b10 G
b110000 $
b101100 3
b101110 G
0?
b0 >
b1001100001011010010011 '
b110100 !
b111000 "
b0 #
b1100 )
b1101 +
1B
06
1&
1K
b10 4
b110100 H
b0 =
1L
#710000
b100000000100 d
b100000000101 c
b100111001011100010011 R
b100111001011100010011 I
#715000
b101100 G
b0 $
b0 3
b0 G
b100 8
b10 7
0K
b0 H
b0 4
1N
0L
1M
#725000
b100111001011100010011 #
0B
b1100 >
b0 8
b0 7
1?
16
0&
0N
b10 =
0M
#735000
b110100 (
b10 G
b110100 $
b110000 3
b110010 G
0?
b0 >
b100111001011100010011 '
b111000 !
b111100 "
b0 #
b111 )
b1 *
b1110 +
1B
06
1&
1K
b1000 4
b111000 H
b0 =
1L
#740000
b100000000101 d
b100000000110 c
b101110101011110010011 R
b101110101011110010011 I
#745000
b110000 G
b0 $
b0 3
b0 G
b100 8
b1000 7
b1 :
0K
b0 H
b0 4
1N
0L
1M
#755000
b101110101011110010011 #
0B
b1101 >
b0 8
b0 7
b0 :
1?
16
0&
0N
b1000 =
0M
#765000
b111000 (
b1 G
b111000 $
b110100 3
b110101 G
0?
b0 >
b101110101011110010011 '
b111100 !
b1000000 "
b0 #
b1110 )
b1111 +
1B
06
1&
1K
b11111111111111111111111111011110 4
b111100 H
b0 =
1L
#770000
b100000000110 d
b100000000111 c
b1000000000101110101100000010011 R
b1000000000101110101100000010011 I
#775000
b110100 G
b0 $
b0 3
b0 G
b11111111111111111111111111011110 7
b1 :
0K
b0 H
b0 4
1N
0L
1M
#785000
b1000000000101110101100000010011 #
0B
b1110 >
b0 7
b0 :
1?
16
0&
0N
b11111111111111111111111111011110 =
0M
#795000
b111100 (
b1 G
b111100 $
b111000 3
b111001 G
0?
b0 >
b1000000000101110101100000010011 '
b1000000 !
b1000100 "
b0 #
b10000 +
1B
06
1&
1K
b1111111111111111111111111101111 4
b1000000 H
b0 =
1L
#800000
b100000000111 d
b100000 c
b110001100001100010110011 R
b110001100001100010110011 I
#805000
b111000 G
b0 $
b0 3
b0 G
b1111111111111111111111111101111 7
b101 :
0K
b0 H
b0 4
1N
0L
1M
#815000
b110001100001100010110011 #
0B
b1111 >
b0 7
b0 :
1?
16
0&
0N
b1111111111111111111111111101111 =
0M
#825000
b1000000 (
b10000000001 G
b1000000 $
b111100 3
b10000111101 G
0?
b0 >
b110001100001100010110011 '
b1000100 !
b1001000 "
b0 #
b1100 )
b1100 *
b10001 +
1B
06
1&
1K
b11111111111111111111111111101111 4
b1000100 H
b0 =
1L
#830000
b100000 d
b100001 c
b110001111101100100110011 R
b110001111101100100110011 I
#835000
b111100 G
b0 $
b0 3
b0 G
b11111111111111111111111111101111 7
b101 :
0K
b0 H
b0 4
1N
0L
1M
#845000
b110001111101100100110011 #
0B
b10000 >
b0 7
b0 :
1?
16
0&
0N
b11111111111111111111111111101111 =
0M
#855000
b1000100 (
b1100 G
b1000100 $
b1000000 3
b1001100 G
0?
b0 >
b110001111101100100110011 '
b1001000 !
b1001100 "
b0 #
b1111 )
b10010 +
1B
06
1&
1K
b1000 4
b1001000 H
b0 =
1L
#860000
b100001 d
b100010 c
b1000000110010000101100110110011 R
b1000000110010000101100110110011 I
#865000
b1000000 G
b0 $
b0 3
b0 G
b10 8
b1000 7
b1 :
0K
b0 H
b0 4
1N
0L
1M
#875000
b1000000110010000101100110110011 #
0B
b10001 >
b0 8
b0 7
b0 :
1?
16
0&
0N
b1000 =
0M
#885000
b1001000 (
b1100 G
b1001000 $
b1000100 3
b1010000 G
0?
b0 >
b1000000110010000101100110110011 '
b1001100 !
b1010000 "
b0 #
b10000 )
b10011 +
1B
06
1&
1K
b11111111111111111111111111011 4
b1001100 H
b0 =
1L
#890000
b100010 d
b100011 c
b1010001000010101000010011 R
b1010001000010101000010011 I
#895000
b1000100 G
b0 $
b0 3
b0 G
b10 8
b11111111111111111111111111011 7
b101 :
0K
b0 H
b0 4
1N
0L
1M
#905000
b1010001000010101000010011 #
0B
b10010 >
b0 8
b0 7
b0 :
1?
16
0&
0N
b11111111111111111111111111011 =
0M
#915000
b1001100 (
b10000001100 G
b1001100 $
b1001000 3
b10001010100 G
0?
b0 >
b1010001000010101000010011 '
b1010000 !
b1010100 "
b0 #
b1000 )
b10100 *
b10100 +
1B
06
1&
1K
b11111111111111111111111111111011 4
b1010000 H
b0 =
1L
#920000
b100011 d
b100100 c
b1010000011011101010010011 R
b1010000011011101010010011 I
#925000
b1001000 G
b0 $
b0 3
b0 G
b10 8
b11111111111111111111111111111011 7
b101 :
0K
b0 H
b0 4
1N
0L
1M
#935000
b1010000011011101010010011 #
0B
b10011 >
b0 8
b0 7
b0 :
1?
16
0&
0N
b11111111111111111111111111111011 =
0M
#945000
b1010000 (
b10100 G
b1010000 $
b1001100 3
b1100000 G
0?
b0 >
b1010000011011101010010011 '
b1010100 !
b1011000 "
b0 #
b11 )
b10101 +
1B
06
1&
1K
b1 4
b1010100 H
b0 =
1L
#950000
b100100 d
b100101 c
b100000011010101100110011 R
b100000011010101100110011 I
#955000
b1001100 G
b0 $
b0 3
b0 G
b1 7
b10 :
0K
b0 H
b0 4
1N
0L
1M
#965000
b100000011010101100110011 #
0B
b10100 >
b0 7
b0 :
1?
16
0&
0N
b1 =
0M
#975000
b1010100 (
b10100 G
b1010100 $
b1010000 3
b1100100 G
0?
b0 >
b100000011010101100110011 '
b1011000 !
b1011100 "
b0 #
b1000 *
b10110 +
1B
06
1&
1K
b1011000 H
b0 =
1L
#980000
b100101 d
b100110 c
b100000011011101110110011 R
b100000011011101110110011 I
#985000
b1010000 G
b0 $
b0 3
b0 G
b1 8
b11 :
0K
b0 H
1N
0L
1M
#995000
b100000011011101110110011 #
0B
b10101 >
b0 8
b0 :
1?
16
0&
0N
0M
#1005000
b1011000 (
b1000 G
b1011000 $
b1010100 3
b1011100 G
0?
b0 >
b100000011011101110110011 '
b1011100 !
b1100000 "
b0 #
b10111 +
1B
06
1&
1K
b1 4
b1011100 H
1L
#1010000
b100110 d
b100111 c
b110000110111 R
b110000110111 I
#1015000
b1010100 G
b0 $
b0 3
b0 G
b11 8
b1 7
b10 :
0K
b0 H
b0 4
1N
0L
1M
#1025000
b110000110111 #
0B
b10110 >
b0 8
b0 7
b0 :
1?
16
0&
0N
b1 =
0M
#1035000
b1011100 (
b1000 G
b1011100 $
b1011000 3
b1100000 G
0?
b0 >
b110000110111 '
b1100000 !
b1100100 "
b0 #
b0 )
b0 *
b11000 +
1B
06
1&
1K
b1100000 H
b0 =
1L
#1040000
b100111 d
b100000100000 c
b100011000010000000100011 R
b100011000010000000100011 I
#1045000
b1011000 G
b0 $
b0 3
b0 G
b11 8
b11 :
0K
b0 H
1N
0L
1M
#1055000
b100011000010000000100011 #
0B
b10111 >
b0 8
b0 :
1?
16
0&
0N
0M
#1065000
b1100000 (
b1100000 $
b1011100 3
b1011100 G
0?
b0 >
b100011000010000000100011 '
b1100100 !
1-
0,
b1101000 "
b0 #
b11000 )
b1000 *
b0 +
1B
06
1&
1K
b1100100 H
1L
#1070000
b100000100000 d
b100000100001 c
b110111000001001000100011 R
b110111000001001000100011 I
#1075000
b0 $
b0 3
b0 G
0K
b0 H
1N
0L
1M
#1085000
b110111000001001000100011 #
0B
b11000 >
1?
16
0&
0N
0M
#1095000
b1100100 (
b1100100 $
b1100000 3
b1100000 G
b0 >
b110111000001001000100011 '
b1101000 !
0?
b1101100 "
b0 #
b1101 *
b100 +
1B
06
1&
1K
b1101000 H
1L
#1100000
b100000100001 d
b100000100010 c
b11111000000001100100011 R
b11111000000001100100011 I
#1105000
b0 $
b0 3
1;
b0 G
b11 8
b10 :
1C
0`
15
0K
b0 H
1N
0L
1M
#1115000
b11111000000001100100011 #
0B
1\
0N
0M
1]
#1120000
b100000100010 d
b0 c
b10010001101000101000010110111 R
b10010001101000101000010110111 I
#1125000
0\
1_
0]
1^
#1135000
0C
1`
05
16
0&
b10010001101000101000010110111 9
0_
0^
#1145000
0;
b100 G
b1101000 $
b1100100 3
b1101000 (
b1101000 G
b0 8
b0 :
b11111000000001100100011 '
b1101100 !
b1110000 "
b0 #
b111 *
b110 +
1B
06
1&
1K
b11 9
b100 4
b1101100 H
1L
#1150000
b0 d
b100000100011 c
b11000010110010000011 R
b11000010110010000011 I
#1155000
1;
b1100100 G
b0 $
b0 3
b0 G
b1000 8
b100 7
b1 :
1C
0`
15
0K
b0 H
b0 4
b0 9
1N
0L
1M
#1165000
b11000010110010000011 #
0B
1\
b100 Q
0N
0M
1]
#1170000
b100000100011 d
b1 c
b100010111 R
b100010111 I
#1175000
0\
b0 Q
1_
0]
1^
#1185000
0C
1`
05
16
0&
b100010111 9
0_
0^
#1195000
0;
b110 G
b1101100 $
b1101000 3
b1101100 (
b1101110 G
b100 >
b0 8
b0 7
b0 :
b11000010110010000011 '
b1110000 !
0-
1,
b1110100 "
b0 #
b0 *
b11001 +
1B
06
1&
1K
b11 9
b110 4
b1110000 H
b100 =
1L
#1200000
b1 d
b100000100100 c
b11001000110100110011 R
b11001000110100110011 I
#1205000
1;
b1101000 G
b0 $
b0 3
b0 G
b0 >
b11111111111111111111111111101111 8
b110 7
0K
b0 H
b0 4
b0 9
1N
b0 =
0L
1M
#1215000
0;
b11001000110100110011 #
0B
b110 >
b0 8
b0 7
16
0&
b11 9
0N
b110 =
0M
#1225000
b1110000 (
b1110000 $
b1101100 3
b1101100 G
b0 >
b11001000110100110011 '
b1110100 !
b1111000 "
b0 #
b11001 )
b11010 +
1a
06
1B
15
1&
1K
b1110100 H
b0 =
1L
#1230000
b100000100100 d
b100000100101 c
b10011000001110110000011 R
b10011000001110110000011 I
#1235000
0a
b1 <
b0 $
b0 3
b0 G
b10 :
05
0K
b0 H
1N
0L
1M
#1245000
b0 <
b10011000001110110000011 #
0B
b11001 >
b0 :
1?
16
0&
0N
b11 =
0M
#1255000
b1110100 (
b1110100 $
b1110000 3
b1110000 G
0?
b0 >
b10011000001110110000011 '
b1111000 !
b1111100 "
b0 #
b11000 )
b100 *
b11011 +
1B
06
1&
1K
b11 4
b1111000 H
b0 =
1L
#1260000
b100000100101 d
b100000100110 c
b11011000101111000000011 R
b11011000101111000000011 I
#1265000
b0 $
b0 3
b0 G
b11 7
0K
b0 H
b0 4
b0 9
1N
0L
1M
#1275000
b11011000101111000000011 #
0B
b11010 >
b0 7
1?
16
b11 9
0&
0N
b11 =
0M
#1285000
b1111000 (
b100 G
b1111000 $
b1110100 3
b1111000 G
0?
b0 >
b11011000101111000000011 '
b1111100 !
b10000000 "
b0 #
b110 *
b11100 +
1B
06
1&
1K
b100 4
b1111100 H
b0 =
1L
#1290000
b100000100110 d
b100000100111 c
b11011000000111010000011 R
b11011000000111010000011 I
#1295000
b1 <
b1110100 G
b0 $
b0 3
b0 G
b11111111111111111111111111111001 8
b100 7
b1 :
0K
b0 H
b0 4
b1000 9
1N
0L
1M
#1305000
b0 <
b11011000000111010000011 #
0B
b11011 >
b0 8
b0 7
b0 :
1?
16
b11 9
0&
0N
b1000 =
0M
#1315000
b1111100 (
b110 G
b1111100 $
b1111000 3
b1111110 G
0?
b0 >
b11011000000111010000011 '
b10000000 !
b10000100 "
b0 #
b11101 +
1B
06
1&
1K
b110 4
b10000000 H
b0 =
1L
#1320000
b100000100111 d
b1000000 c
b11011000100111100000011 R
b11011000100111100000011 I
#1325000
b1 <
b1111000 G
b0 $
b0 3
b0 G
b1111 8
b110 7
b101 :
0K
b0 H
b0 4
b11101111 9
1N
0L
1M
#1335000
b0 <
b11011000100111100000011 #
0B
b11100 >
b0 8
b0 7
b0 :
1?
16
b11 9
0&
0N
b11101111 =
0M
#1345000
b10000000 (
b110 G
b10000000 $
b1111100 3
b10000010 G
0?
b0 >
b11011000100111100000011 '
b10000100 !
b10001000 "
b0 #
b11110 +
1B
06
1&
1K
b110 4
b10000100 H
b0 =
1L
#1350000
b1000000 d
b1000001 c
b1101011001000010001100011 R
b1101011001000010001100011 I
#1355000
b1 <
b1111100 G
b0 $
b0 3
b0 G
b1111 8
b110 7
0K
b0 H
b0 4
b11111111111111111111111111101111 9
1N
0L
1M
#1365000
b0 <
b1101011001000010001100011 #
0B
b11101 >
b0 8
b0 7
1?
16
b11 9
0&
0N
b11111111111111111111111111101111 =
0M
#1375000
b10000100 (
b110 G
b10000100 $
b10000000 3
b10000110 G
0?
b0 >
b1101011001000010001100011 '
b10001000 !
1/
0,
b10001100 "
b0 #
b11001 )
b11010 *
b1000 +
1B
06
1&
1K
b110 4
b10001000 H
b0 =
1L
#1380000
b1000001 d
b1000010 c
b11111111111100000000111110010011 R
b11111111111100000000111110010011 I
#1385000
b1 <
b10000000 G
b0 $
b0 3
b0 G
b1111 8
b110 7
b100 :
0K
b0 H
b0 4
b11101111 9
1N
0L
1M
#1395000
b0 <
b11111111111100000000111110010011 #
0B
b11110 >
b0 8
b0 7
b0 :
1?
16
b11 9
0&
0N
b11101111 =
0M
#1405000
1F
b10001000 (
b1000 G
b10000100 3
1%
b10001100 G
b1000 $
06
10
b10001100 $
0?
b0 >
b11111111111100000000111110010011 '
b10001100 !
0/
1,
b10010000 "
b0 #
b0 )
b11111 *
b11111 +
1B
1&
1K
b10001100 H
b0 =
1L
#1410000
b1000010 d
b1000011 c
b11001001010001100011 R
b11001001010001100011 I
#1415000
0F
b0 (
b10000100 G
b0 $
b0 3
0%
b0 G
00
b11 8
b0 '
b0 *
b0 +
0,
0K
b0 H
1N
0L
1M
#1425000
b11001001010001100011 #
0B
b1000 >
b0 8
16
0&
0N
0M
#1435000
b10001100 (
b0 >
b11001001010001100011 '
b10010000 !
1/
b10010100 "
b0 #
b11001 )
b1000 +
1B
06
1&
1K
b10010000 H
1L
#1440000
b1000011 d
b1000100 c
b11111111111000000000111110010011 R
b11111111111000000000111110010011 I
#1445000
0K
b0 H
1N
0L
1M
#1455000
b11111111111000000000111110010011 #
0B
16
0&
0N
0M
#1465000
1F
0F
b10010000 (
b1000 G
b10001100 3
1%
0%
b10010100 G
b10010000 $
06
10
16
00
b11111111111000000000111110010011 '
b10010100 !
0/
1,
b10011000 "
b0 #
b0 )
b11110 *
b11111 +
1B
06
1&
1K
b11 4
b10010100 H
1F
1%
b10010100 $
10
1L
#1470000
b1000100 d
b1000101 c
b100000011100010001100011 R
b100000011100010001100011 I
#1475000
0F
b0 (
b10001100 G
b0 $
b0 3
0%
b0 G
00
b11 7
b1 :
b0 '
b0 *
b0 +
0,
0K
b0 H
b0 4
b0 9
1N
0L
1M
#1485000
b100000011100010001100011 #
0B
b1000 >
b0 7
b0 :
16
b11 9
0&
0N
b11 =
0M
#1495000
b10010100 (
b0 >
b100000011100010001100011 '
b10011000 !
1/
b10011100 "
b0 #
b11 )
b1000 *
b1000 +
1B
06
1&
1K
b10011000 H
b0 =
1L
#1500000
b1000101 d
b1000110 c
b11111111110100000000111110010011 R
b11111111110100000000111110010011 I
#1505000
0K
b0 H
1N
0L
1M
#1515000
b11111111110100000000111110010011 #
0B
16
0&
0N
0M
#1525000
1F
0F
b10011000 (
b1000 G
b10010100 3
1%
0%
b10011100 G
b10011000 $
06
10
16
00
b11111111110100000000111110010011 '
b10011100 !
0/
1,
b10100000 "
b0 #
b0 )
b11101 *
b11111 +
1B
06
1&
1K
b11111111111111111111111111110011 4
b10011100 H
1F
1%
b10011100 $
10
1L
#1530000
b1000110 d
b1000111 c
b1101000101010001100011 R
b1101000101010001100011 I
#1535000
0F
b0 (
b10010100 G
b0 $
b0 3
0%
b0 G
00
b11 8
b11111111111111111111111111110011 7
b100 :
b0 '
b0 *
b0 +
0,
0K
b0 H
b0 4
b0 9
1N
0L
1M
#1545000
b1101000101010001100011 #
0B
b1000 >
b0 8
b0 7
b0 :
16
b11 9
0&
0N
b11111111111111111111111111110011 =
0M
#1555000
b10011100 (
b0 >
b1101000101010001100011 '
b10100000 !
1/
b10100100 "
b0 #
b1000 )
b11 *
b1000 +
1B
06
1&
1K
b10100000 H
b0 =
1L
#1560000
b1000111 d
b100001000000 c
b11111111110000000000111110010011 R
b11111111110000000000111110010011 I
#1565000
0K
b0 H
1N
0L
1M
#1575000
b11111111110000000000111110010011 #
0B
16
0&
0N
0M
#1585000
1F
b10100000 (
b1000 G
b10011100 3
1%
b10100100 G
b1000 $
06
10
b10100100 $
b11111111110000000000111110010011 '
b10100100 !
0/
1,
b10101000 "
b0 #
b0 )
b11100 *
b11111 +
1B
1&
1K
b1101 4
b10100100 H
1L
#1590000
b100001000000 d
b100001000001 c
b1101000110010001100011 R
b1101000110010001100011 I
#1595000
0F
b0 (
b10011100 G
b0 $
b0 3
0%
b0 G
00
b11111111111111111111111111110110 8
b1101 7
b101 :
b0 '
b0 *
b0 +
0,
0K
b0 H
b0 4
b0 9
1N
0L
1M
#1605000
b1101000110010001100011 #
0B
b1000 >
b0 8
b0 7
b0 :
16
b11 9
0&
0N
b1101 =
0M
#1615000
b10100100 (
b0 >
b1101000110010001100011 '
b10101000 !
1/
b10101100 "
b0 #
b1000 )
b11 *
b1000 +
1B
06
1&
1K
b10101000 H
b0 =
1L
#1620000
b100001000001 d
b100001000010 c
b11111111101100000000111110010011 R
b11111111101100000000111110010011 I
#1625000
0K
b0 H
1N
0L
1M
#1635000
b11111111101100000000111110010011 #
0B
16
0&
0N
0M
#1645000
1F
b10101000 (
b1000 G
b10100100 3
1%
b10101100 G
b1000 $
06
10
b10101100 $
b11111111101100000000111110010011 '
b10101100 !
0/
1,
b10110000 "
b0 #
b0 )
b11011 *
b11111 +
1B
1&
1K
b1101 4
b10101100 H
1L
#1650000
b100001000010 d
b100001000011 c
b100000011111010001100011 R
b100000011111010001100011 I
#1655000
0F
b0 (
b10100100 G
b0 $
b0 3
0%
b0 G
00
b11111111111111111111111111110110 8
b1101 7
b110 :
b0 '
b0 *
b0 +
0,
0K
b0 H
b0 4
b0 9
1N
0L
1M
#1665000
b100000011111010001100011 #
0B
b1000 >
b0 8
b0 7
b0 :
16
b11 9
0&
0N
b1101 =
0M
#1675000
b10101100 (
b0 >
b100000011111010001100011 '
b10110000 !
1/
b10110100 "
b0 #
b11 )
b1000 *
b1000 +
1B
06
1&
1K
b10110000 H
b0 =
1L
#1680000
b100001000011 d
b100001000100 c
b11111111101000000000111110010011 R
b11111111101000000000111110010011 I
#1685000
0K
b0 H
1N
0L
1M
#1695000
b11111111101000000000111110010011 #
0B
16
0&
0N
0M
#1705000
1F
0F
b10110000 (
b1000 G
b10101100 3
1%
0%
b10110100 G
b10110000 $
06
10
16
00
b11111111101000000000111110010011 '
b10110100 !
0/
1,
b10111000 "
b0 #
b0 )
b11010 *
b11111 +
1B
06
1&
1K
b11111111111111111111111111110011 4
b10110100 H
1F
1%
b10110100 $
10
1L
#1710000
b100001000100 d
b100001000101 c
b110000000000111111101111 R
b110000000000111111101111 I
