dump_uvm.vcd
$date
	Sat May 30 10:16:43 2026
$end
$version
	QuestaSim Version 2021.2_1
$end
$timescale
	1ps
$end

$scope module tb_top $end

$scope module dut $end
$var wire 32 ! pc_f [31:0] $end
$var wire 32 " pc_plus_4_f [31:0] $end
$var wire 32 # instr_f [31:0] $end
$var wire 32 $ pc_target_e [31:0] $end
$var wire 1 % pc_src_e $end
$var wire 1 & stall_f $end
$var wire 32 ' instr_d [31:0] $end
$var wire 32 ( pc_d [31:0] $end
$var wire 5 ) rs1_d [4:0] $end
$var wire 5 * rs2_d [4:0] $end
$var wire 5 + rd_d [4:0] $end
$var wire 1 , reg_write_d $end
$var wire 1 - mem_write_d $end
$var wire 1 . jump_d $end
$var wire 1 / branch_d $end
$var wire 1 0 flush_d $end
$var wire 1 1 is_ecall_d $end
$var wire 1 2 is_mret_d $end
$var wire 32 3 pc_e [31:0] $end
$var wire 32 4 alu_result_e [31:0] $end
$var wire 1 5 issue_stall $end
$var wire 1 6 issue_valid $end
$var wire 32 7 alu_result_m [31:0] $end
$var wire 32 8 write_data_m [31:0] $end
$var wire 32 9 read_data_m [31:0] $end
$var wire 3 : funct3_m [2:0] $end
$var wire 1 ; mem_write_m $end
$var wire 3 < result_src_m [2:0] $end
$var wire 32 = result_w [31:0] $end
$var wire 5 > rd_w [4:0] $end
$var wire 1 ? reg_write_w $end
$var wire 32 @ trap_vec [31:0] $end
$var wire 32 A epc [31:0] $end
$var wire 1 B icache_stall $end
$var wire 1 C dcache_stall $end
$var wire 32 D i_araddr [31:0] $end
$var wire 32 E i_rdata [31:0] $end
$var wire 2 F i_rresp [1:0] $end
$var wire 1 G i_arvalid $end
$var wire 1 H i_arready $end
$var wire 1 I i_rvalid $end
$var wire 1 J i_rready $end
$var wire 32 K d_awaddr [31:0] $end
$var wire 32 L d_wdata [31:0] $end
$var wire 32 M d_araddr [31:0] $end
$var wire 32 N d_rdata [31:0] $end
$var wire 4 O d_wstrb [3:0] $end
$var wire 2 P d_bresp [1:0] $end
$var wire 2 Q d_rresp [1:0] $end
$var wire 1 R d_awvalid $end
$var wire 1 S d_awready $end
$var wire 1 T d_wvalid $end
$var wire 1 U d_wready $end
$var wire 1 V d_bvalid $end
$var wire 1 W d_bready $end
$var wire 1 X d_arvalid $end
$var wire 1 Y d_arready $end
$var wire 1 Z d_rvalid $end
$var wire 1 [ d_rready $end

$scope module decode_stage $end

$scope module register_file $end
$upscope $end
$upscope $end

$scope module issue_stage $end
$var wire 1 \ execute_ready $end
$var wire 1 ] load_use_hazard $end
$upscope $end

$scope module sram_macro $end

$scope module EF_SRAM_1024x32_inst $end

$scope begin TSU_TH_NOTIFIER_COND_CLEAR $end
$upscope $end

$scope task rand_init_whole_memory $end
$var integer 32 ^ l $end
$upscope $end

$scope module memory_mode_inst $end
$var reg 12 _ ADreg [11:0] $end
$var reg 12 ` ADreg_scan [11:0] $end
$var reg 32 a DIreg [31:0] $end
$var reg 32 b BENreg [31:0] $end
$var reg 1 c ENreg $end
$var reg 1 d R_WBreg $end
$var reg 1 e ENreg_scan $end
$var reg 1 f R_WBreg_scan $end

$scope begin write_data_block $end
$upscope $end

$scope begin read_data_block $end
$upscope $end

$scope task is_Floating_Signal $end
$upscope $end
$upscope $end
$upscope $end
$upscope $end
$upscope $end
$upscope $end
$enddefinitions $end
#0
$dumpvars
bx _
bx `
bx a
bx b
xc
xd
xe
xf
b0 !
b100 "
bx #
b0 $
b0 '
b0 (
b0 )
b0 *
b0 +
b0 3
b0 4
b0 7
b0 8
bx 9
b0 :
b0 <
b0 =
b0 >
bx @
bx A
b0 D
bx E
b0 F
b0 K
b0 L
b0 M
bx N
b0 O
b0 P
b0 Q
b0 ^
0%
x&
0,
0-
0.
0/
00
01
02
x5
x6
0;
0?
xB
xC
0G
0H
0I
0J
0R
0S
0T
0U
0V
0W
0X
0Y
0Z
0[
x\
0]
$end
#6000
b0 #
0C
1B
06
1&
b0 9
1G
1H
#10000
b0 a
b0 _
1c
1d
b0 b
#15000
1\
b0 A
b0 @
05
#20000
b0 `
#325000
0G
1J
0H
1I
#335000
bx #
0B
16
0&
0J
0I
#345000
bx '
b100 !
x2
x1
x.
x/
x-
x,
b1000 "
b0 #
bx )
bx *
bx +
1B
06
1&
1G
b100 D
1H
#350000
b1 _
b100010111 N
b100010111 E
#355000
0G
b0 D
1J
0H
1I
#365000
b100010111 #
0B
16
0&
0J
0I
#375000
x\
x%
x]
b100 (
x6
x0
b100010111 '
b1000 !
x5
02
01
0.
0/
0-
b1100 "
b0 #
b0 )
b0 *
b10 +
1,
1B
06
1&
1G
b1000 D
1H
#380000
b1 `
b10 _
b11111111011000000000000110010011 N
b11111111011000000000000110010011 E
#385000
1\
0%
0]
x;
b0xx <
00
bx 8
bx :
05
xC
x\
x5
0G
b0 D
1J
0H
1I
#395000
0;
b0 <
b11111111011000000000000110010011 #
0B
bx >
b0 8
b0 :
x?
0C
1\
05
16
0&
0J
0I
#405000
b1000 (
b100 3
b100 $
0?
b0 >
b11111111011000000000000110010011 '
b1100 !
b10000 "
b0 #
b10110 *
b11 +
1B
06
1&
1G
b100 4
b1100 D
1H
#410000
b10 `
b11 _
b111100011100001000010011 N
b111100011100001000010011 E
#415000
b0 3
b0 $
b100 7
0G
b0 D
b0 4
1J
0H
1I
#425000
b111100011100001000010011 #
0B
b10 >
b0 7
1?
16
0&
0J
b100 =
0I
#435000
b1100 (
b11111111111111111111111111110110 $
b1000 3
b11111111111111111111111111111110 $
0?
b0 >
b111100011100001000010011 '
b10000 !
b10100 "
b0 #
b11 )
b1111 *
b100 +
1B
06
1&
1G
b11111111111111111111111111110110 4
b10000 D
b0 =
1H
#440000
b11 `
b100 _
b111100000110001010010011 N
b111100000110001010010011 E
#445000
b1000 $
b0 3
b0 $
b11111111111111111111111111110110 7
0G
b0 D
b0 4
1J
0H
1I
#455000
b111100000110001010010011 #
0B
b11 >
b0 7
1?
16
0&
0J
b11111111111111111111111111110110 =
0I
#465000
b10000 (
b1111 $
b1100 3
b11011 $
0?
b0 >
b111100000110001010010011 '
b10100 !
b11000 "
b0 #
b0 )
b101 +
1B
06
1&
1G
b11111111111111111111111111111001 4
b10100 D
b0 =
1H
#470000
b100 `
b101 _
b111100101111001100010011 N
b111100101111001100010011 E
#475000
b1100 $
b0 3
b0 $
b11111111111111111111111111111001 7
b100 :
0G
b0 D
b0 4
1J
0H
1I
#485000
b111100101111001100010011 #
0B
b100 >
b0 7
b0 :
1?
16
0&
0J
b11111111111111111111111111111001 =
0I
#495000
b10100 (
b1111 $
b10000 3
b11111 $
0?
b0 >
b111100101111001100010011 '
b11000 !
b11100 "
b0 #
b101 )
b110 +
1B
06
1&
1G
b1111 4
b11000 D
b0 =
1H
#500000
b101 `
b110 _
b1100100000001110110011 N
b1100100000001110110011 E
#505000
b10000 $
b0 3
b0 $
b1111 7
b110 :
0G
b0 D
b0 4
1J
0H
1I
#515000
b1100100000001110110011 #
0B
b101 >
b0 7
b0 :
1?
16
0&
0J
b1111 =
0I
#525000
b11000 (
b1111 $
b10100 3
b100011 $
0?
b0 >
b1100100000001110110011 '
b11100 !
b100000 "
b0 #
b100 )
b11 *
b111 +
1B
06
1&
1G
b1111 4
b11100 D
b0 =
1H
#530000
b110 `
b111 _
b1000000001100100000010000110011 N
b1000000001100100000010000110011 E
#535000
b10100 $
b0 3
b0 $
b1111 7
b111 :
0G
b0 D
b0 4
1J
0H
1I
#545000
b1000000001100100000010000110011 #
0B
b110 >
b0 7
b0 :
1?
16
0&
0J
b1111 =
0I
#555000
b11100 (
b11 $
b11000 3
b11011 $
0?
b0 >
b1000000001100100000010000110011 '
b100000 !
b100100 "
b0 #
b1000 +
1B
06
1&
1G
b11111111111111111111111111101111 4
b100000 D
b0 =
1H
#560000
b111 `
b100000000000 _
b10100111111010010110011 N
b10100111111010010110011 E
#565000
b11000 $
b0 3
b0 $
b11111111111111111111111111110110 8
b11111111111111111111111111101111 7
0G
b0 D
b0 4
1J
0H
1I
#575000
b10100111111010010110011 #
0B
b111 >
b0 8
b0 7
1?
16
0&
0J
b11111111111111111111111111101111 =
0I
#585000
b100000 (
b10000000011 $
b11100 3
b10000011111 $
0?
b0 >
b10100111111010010110011 '
b100100 !
b101000 "
b0 #
b111 )
b101 *
b1001 +
1B
06
1&
1G
b11 4
b100100 D
b0 =
1H
#590000
b100000000000 `
b100000000001 _
b100000110110010100110011 N
b100000110110010100110011 E
#595000
b11100 $
b0 3
b0 $
b11111111111111111111111111110110 8
b11 7
0G
b0 D
b0 4
1J
0H
1I
#605000
b100000110110010100110011 #
0B
b1000 >
b0 8
b0 7
1?
16
0&
0J
b11 =
0I
#615000
b100100 (
b101 $
b100000 3
b100101 $
0?
b0 >
b100000110110010100110011 '
b101000 !
b101100 "
b0 #
b110 )
b1000 *
b1010 +
1B
06
1&
1G
b1111 4
b101000 D
b0 =
1H
#620000
b100000000001 `
b100000000010 _
b100001010100010110110011 N
b100001010100010110110011 E
#625000
b100000 $
b0 3
b0 $
b1111 8
b1111 7
b111 :
0G
b0 D
b0 4
1J
0H
1I
#635000
b100001010100010110110011 #
0B
b1001 >
b0 8
b0 7
b0 :
1?
16
0&
0J
b1111 =
0I
#645000
b101000 (
b1000 $
b100100 3
b101100 $
0?
b0 >
b100001010100010110110011 '
b101100 !
b110000 "
b0 #
b1010 )
b1011 +
1B
06
1&
1G
b1111 4
b101100 D
b0 =
1H
#650000
b100000000010 `
b100000000011 _
b1000000000011000010011 N
b1000000000011000010011 E
#655000
b100100 $
b0 3
b0 $
b11 8
b1111 7
b110 :
0G
b0 D
b0 4
1J
0H
1I
#665000
b1000000000011000010011 #
0B
b1010 >
b0 8
b0 7
b0 :
1?
16
0&
0J
b1111 =
0I
#675000
b101100 (
b1000 $
b101000 3
b110000 $
0?
b0 >
b1000000000011000010011 '
b110000 !
b110100 "
b0 #
b0 )
b10 *
b1100 +
1B
06
1&
1G
b1100 4
b110000 D
b0 =
1H
#680000
b100000000011 `
b100000000100 _
b1001100001011010010011 N
b1001100001011010010011 E
#685000
b101000 $
b0 3
b0 $
b11 8
b1100 7
b100 :
0G
b0 D
b0 4
1J
0H
1I
#695000
b1001100001011010010011 #
0B
b1011 >
b0 8
b0 7
b0 :
1?
16
0&
0J
b1100 =
0I
#705000
b110000 (
b10 $
b101100 3
b101110 $
0?
b0 >
b1001100001011010010011 '
b110100 !
b111000 "
b0 #
b1100 )
b1101 +
1B
06
1&
1G
b10 4
b110100 D
b0 =
1H
#710000
b100000000100 `
b100000000101 _
b100111001011100010011 N
b100111001011100010011 E
#715000
b101100 $
b0 3
b0 $
b100 8
b10 7
0G
b0 D
b0 4
1J
0H
1I
#725000
b100111001011100010011 #
0B
b1100 >
b0 8
b0 7
1?
16
0&
0J
b10 =
0I
#735000
b110100 (
b10 $
b110000 3
b110010 $
0?
b0 >
b100111001011100010011 '
b111000 !
b111100 "
b0 #
b111 )
b1 *
b1110 +
1B
06
1&
1G
b1000 4
b111000 D
b0 =
1H
#740000
b100000000101 `
b100000000110 _
b101110101011110010011 N
b101110101011110010011 E
#745000
b110000 $
b0 3
b0 $
b100 8
b1000 7
b1 :
0G
b0 D
b0 4
1J
0H
1I
#755000
b101110101011110010011 #
0B
b1101 >
b0 8
b0 7
b0 :
1?
16
0&
0J
b1000 =
0I
#765000
b111000 (
b1 $
b110100 3
b110101 $
0?
b0 >
b101110101011110010011 '
b111100 !
b1000000 "
b0 #
b1110 )
b1111 +
1B
06
1&
1G
b11111111111111111111111111011110 4
b111100 D
b0 =
1H
#770000
b100000000110 `
b100000000111 _
b1000000000101110101100000010011 N
b1000000000101110101100000010011 E
#775000
b110100 $
b0 3
b0 $
b11111111111111111111111111011110 7
b1 :
0G
b0 D
b0 4
1J
0H
1I
#785000
b1000000000101110101100000010011 #
0B
b1110 >
b0 7
b0 :
1?
16
0&
0J
b11111111111111111111111111011110 =
0I
#795000
b111100 (
b1 $
b111000 3
b111001 $
0?
b0 >
b1000000000101110101100000010011 '
b1000000 !
b1000100 "
b0 #
b10000 +
1B
06
1&
1G
b1111111111111111111111111101111 4
b1000000 D
b0 =
1H
#800000
b100000000111 `
b100000 _
b110001100001100010110011 N
b110001100001100010110011 E
#805000
b111000 $
b0 3
b0 $
b1111111111111111111111111101111 7
b101 :
0G
b0 D
b0 4
1J
0H
1I
#815000
b110001100001100010110011 #
0B
b1111 >
b0 7
b0 :
1?
16
0&
0J
b1111111111111111111111111101111 =
0I
#825000
b1000000 (
b10000000001 $
b111100 3
b10000111101 $
0?
b0 >
b110001100001100010110011 '
b1000100 !
b1001000 "
b0 #
b1100 )
b1100 *
b10001 +
1B
06
1&
1G
b11111111111111111111111111101111 4
b1000100 D
b0 =
1H
#830000
b100000 `
b100001 _
b110001111101100100110011 N
b110001111101100100110011 E
#835000
b111100 $
b0 3
b0 $
b11111111111111111111111111101111 7
b101 :
0G
b0 D
b0 4
1J
0H
1I
#845000
b110001111101100100110011 #
0B
b10000 >
b0 7
b0 :
1?
16
0&
0J
b11111111111111111111111111101111 =
0I
#855000
b1000100 (
b1100 $
b1000000 3
b1001100 $
0?
b0 >
b110001111101100100110011 '
b1001000 !
b1001100 "
b0 #
b1111 )
b10010 +
1B
06
1&
1G
b1000 4
b1001000 D
b0 =
1H
#860000
b100001 `
b100010 _
b1000000110010000101100110110011 N
b1000000110010000101100110110011 E
#865000
b1000000 $
b0 3
b0 $
b10 8
b1000 7
b1 :
0G
b0 D
b0 4
1J
0H
1I
#875000
b1000000110010000101100110110011 #
0B
b10001 >
b0 8
b0 7
b0 :
1?
16
0&
0J
b1000 =
0I
#885000
b1001000 (
b1100 $
b1000100 3
b1010000 $
0?
b0 >
b1000000110010000101100110110011 '
b1001100 !
b1010000 "
b0 #
b10000 )
b10011 +
1B
06
1&
1G
b11111111111111111111111111011 4
b1001100 D
b0 =
1H
#890000
b100010 `
b100011 _
b1010001000010101000010011 N
b1010001000010101000010011 E
#895000
b1000100 $
b0 3
b0 $
b10 8
b11111111111111111111111111011 7
b101 :
0G
b0 D
b0 4
1J
0H
1I
#905000
b1010001000010101000010011 #
0B
b10010 >
b0 8
b0 7
b0 :
1?
16
0&
0J
b11111111111111111111111111011 =
0I
#915000
b1001100 (
b10000001100 $
b1001000 3
b10001010100 $
0?
b0 >
b1010001000010101000010011 '
b1010000 !
b1010100 "
b0 #
b1000 )
b10100 *
b10100 +
1B
06
1&
1G
b11111111111111111111111111111011 4
b1010000 D
b0 =
1H
#920000
b100011 `
b100100 _
b1010000011011101010010011 N
b1010000011011101010010011 E
#925000
b1001000 $
b0 3
b0 $
b10 8
b11111111111111111111111111111011 7
b101 :
0G
b0 D
b0 4
1J
0H
1I
#935000
b1010000011011101010010011 #
0B
b10011 >
b0 8
b0 7
b0 :
1?
16
0&
0J
b11111111111111111111111111111011 =
0I
#945000
b1010000 (
b10100 $
b1001100 3
b1100000 $
0?
b0 >
b1010000011011101010010011 '
b1010100 !
b1011000 "
b0 #
b11 )
b10101 +
1B
06
1&
1G
b1 4
b1010100 D
b0 =
1H
#950000
b100100 `
b100101 _
b100000011010101100110011 N
b100000011010101100110011 E
#955000
b1001100 $
b0 3
b0 $
b1 7
b10 :
0G
b0 D
b0 4
1J
0H
1I
#965000
b100000011010101100110011 #
0B
b10100 >
b0 7
b0 :
1?
16
0&
0J
b1 =
0I
#975000
b1010100 (
b10100 $
b1010000 3
b1100100 $
0?
b0 >
b100000011010101100110011 '
b1011000 !
b1011100 "
b0 #
b1000 *
b10110 +
1B
06
1&
1G
b1011000 D
b0 =
1H
#980000
b100101 `
b100110 _
b100000011011101110110011 N
b100000011011101110110011 E
#985000
b1010000 $
b0 3
b0 $
b1 8
b11 :
0G
b0 D
1J
0H
1I
#995000
b100000011011101110110011 #
0B
b10101 >
b0 8
b0 :
1?
16
0&
0J
0I
#1005000
b1011000 (
b1000 $
b1010100 3
b1011100 $
0?
b0 >
b100000011011101110110011 '
b1011100 !
b1100000 "
b0 #
b10111 +
1B
06
1&
1G
b1 4
b1011100 D
1H
#1010000
b100110 `
b100111 _
b110000110111 N
b110000110111 E
#1015000
b1010100 $
b0 3
b0 $
b11 8
b1 7
b10 :
0G
b0 D
b0 4
1J
0H
1I
#1025000
b110000110111 #
0B
b10110 >
b0 8
b0 7
b0 :
1?
16
0&
0J
b1 =
0I
#1035000
b1011100 (
b1000 $
b1011000 3
b1100000 $
0?
b0 >
b110000110111 '
b1100000 !
b1100100 "
b0 #
b0 )
b0 *
b11000 +
1B
06
1&
1G
b1100000 D
b0 =
1H
#1040000
b100111 `
b100000100000 _
b100011000010000000100011 N
b100011000010000000100011 E
#1045000
b1011000 $
b0 3
b0 $
b11 8
b11 :
0G
b0 D
1J
0H
1I
#1055000
b100011000010000000100011 #
0B
b10111 >
b0 8
b0 :
1?
16
0&
0J
0I
#1065000
b1100000 (
b1011100 3
b1011100 $
0?
b0 >
b100011000010000000100011 '
b1100100 !
1-
0,
b1101000 "
b0 #
b11000 )
b1000 *
b0 +
1B
06
1&
1G
b1100100 D
1H
#1070000
b100000100000 `
b100000100001 _
b110111000001001000100011 N
b110111000001001000100011 E
#1075000
b0 3
b0 $
0G
b0 D
1J
0H
1I
#1085000
b110111000001001000100011 #
0B
b11000 >
1?
16
0&
0J
0I
#1095000
b1100100 (
b1100000 3
b1100000 $
b0 >
b110111000001001000100011 '
b1101000 !
0?
b1101100 "
b0 #
b1101 *
b100 +
1B
06
1&
1G
b1101000 D
1H
#1100000
b100000100001 `
b100000100010 _
b11111000000001100100011 N
b11111000000001100100011 E
#1105000
b0 3
1;
b0 $
b11 8
b10 :
1C
0\
15
0G
b0 D
1J
0H
1I
#1115000
b11111000000001100100011 #
0B
1X
0J
0I
1Y
#1120000
b100000100010 `
b0 _
b10010001101000101000010110111 N
b10010001101000101000010110111 E
#1125000
0X
1[
0Y
1Z
#1135000
0C
1\
05
16
0&
b10010001101000101000010110111 9
0[
0Z
#1145000
0;
b100 $
b1100100 3
b1101000 (
b1101000 $
b0 8
b0 :
b11111000000001100100011 '
b1101100 !
b1110000 "
b0 #
b111 *
b110 +
1B
06
1&
1G
b11 9
b100 4
b1101100 D
1H
#1150000
b0 `
b100000100011 _
b11000010110010000011 N
b11000010110010000011 E
#1155000
1;
b1100100 $
b0 3
b0 $
b1000 8
b100 7
b1 :
1C
0\
15
0G
b0 D
b0 4
b0 9
1J
0H
1I
#1165000
b11000010110010000011 #
0B
1X
b100 M
0J
0I
1Y
#1170000
b100000100011 `
b1 _
b100010111 N
b100010111 E
#1175000
0X
b0 M
1[
0Y
1Z
#1185000
0C
1\
05
16
0&
b100010111 9
0[
0Z
#1195000
0;
b110 $
b1101000 3
b1101100 (
b1101110 $
b100 >
b0 8
b0 7
b0 :
b11000010110010000011 '
b1110000 !
0-
1,
b1110100 "
b0 #
b0 *
b11001 +
1B
06
1&
1G
b11 9
b110 4
b1110000 D
b100 =
1H
#1200000
b1 `
b100000100100 _
b11001000110100110011 N
b11001000110100110011 E
#1205000
1;
b1101000 $
b0 3
b0 $
b0 >
b11111111111111111111111111101111 8
b110 7
0G
b0 D
b0 4
b0 9
1J
b0 =
0H
1I
#1215000
0;
b11001000110100110011 #
0B
b110 >
b0 8
b0 7
16
0&
b11 9
0J
b110 =
0I
#1225000
b1110000 (
b1101100 3
b1101100 $
b0 >
b11001000110100110011 '
b1110100 !
b1111000 "
b0 #
b11001 )
b11010 +
1]
06
1B
15
1&
1G
b1110100 D
b0 =
1H
#1230000
b100000100100 `
b100000100101 _
b10011000001110110000011 N
b10011000001110110000011 E
#1235000
0]
b1 <
b0 3
b0 $
b10 :
05
0G
b0 D
1J
0H
1I
#1245000
b0 <
b10011000001110110000011 #
0B
b11001 >
b0 :
1?
16
0&
0J
b11 =
0I
#1255000
b1110100 (
b1110000 3
b1110000 $
0?
b0 >
b10011000001110110000011 '
b1111000 !
b1111100 "
b0 #
b11000 )
b100 *
b11011 +
1B
06
1&
1G
b11 4
b1111000 D
b0 =
1H
#1260000
b100000100101 `
b100000100110 _
b11011000101111000000011 N
b11011000101111000000011 E
#1265000
b0 3
b0 $
b11 7
0G
b0 D
b0 4
b0 9
1J
0H
1I
#1275000
b11011000101111000000011 #
0B
b11010 >
b0 7
1?
16
b11 9
0&
0J
b11 =
0I
#1285000
b1111000 (
b100 $
b1110100 3
b1111000 $
0?
b0 >
b11011000101111000000011 '
b1111100 !
b10000000 "
b0 #
b110 *
b11100 +
1B
06
1&
1G
b100 4
b1111100 D
b0 =
1H
#1290000
b100000100110 `
b100000100111 _
b11011000000111010000011 N
b11011000000111010000011 E
#1295000
b1 <
b1110100 $
b0 3
b0 $
b11111111111111111111111111111001 8
b100 7
b1 :
0G
b0 D
b0 4
b1000 9
1J
0H
1I
#1305000
b0 <
b11011000000111010000011 #
0B
b11011 >
b0 8
b0 7
b0 :
1?
16
b11 9
0&
0J
b1000 =
0I
#1315000
b1111100 (
b110 $
b1111000 3
b1111110 $
0?
b0 >
b11011000000111010000011 '
b10000000 !
b10000100 "
b0 #
b11101 +
1B
06
1&
1G
b110 4
b10000000 D
b0 =
1H
#1320000
b100000100111 `
b1000000 _
b11011000100111100000011 N
b11011000100111100000011 E
#1325000
b1 <
b1111000 $
b0 3
b0 $
b1111 8
b110 7
b101 :
0G
b0 D
b0 4
b11101111 9
1J
0H
1I
#1335000
b0 <
b11011000100111100000011 #
0B
b11100 >
b0 8
b0 7
b0 :
1?
16
b11 9
0&
0J
b11101111 =
0I
#1345000
b10000000 (
b110 $
b1111100 3
b10000010 $
0?
b0 >
b11011000100111100000011 '
b10000100 !
b10001000 "
b0 #
b11110 +
1B
06
1&
1G
b110 4
b10000100 D
b0 =
1H
#1350000
b1000000 `
b1000001 _
b1101011001000010001100011 N
b1101011001000010001100011 E
#1355000
b1 <
b1111100 $
b0 3
b0 $
b1111 8
b110 7
0G
b0 D
b0 4
b11111111111111111111111111101111 9
1J
0H
1I
#1365000
b0 <
b1101011001000010001100011 #
0B
b11101 >
b0 8
b0 7
1?
16
b11 9
0&
0J
b11111111111111111111111111101111 =
0I
#1375000
b10000100 (
b110 $
b10000000 3
b10000110 $
0?
b0 >
b1101011001000010001100011 '
b10001000 !
1/
0,
b10001100 "
b0 #
b11001 )
b11010 *
b1000 +
1B
06
1&
1G
b110 4
b10001000 D
b0 =
1H
#1380000
b1000001 `
b1000010 _
b11111111111100000000111110010011 N
b11111111111100000000111110010011 E
#1385000
b1 <
b10000000 $
b0 3
b0 $
b1111 8
b110 7
b100 :
0G
b0 D
b0 4
b11101111 9
1J
0H
1I
#1395000
b0 <
b11111111111100000000111110010011 #
0B
b11110 >
b0 8
b0 7
b0 :
1?
16
b11 9
0&
0J
b11101111 =
0I
#1405000
1%
b10001000 (
b1000 $
b10000100 3
06
10
b10001100 $
0?
b0 >
b11111111111100000000111110010011 '
b10001100 !
0/
1,
b10010000 "
b0 #
b0 )
b11111 *
b11111 +
1B
1&
1G
b10001100 D
b0 =
1H
#1410000
b1000010 `
b1000011 _
b11001001010001100011 N
b11001001010001100011 E
#1415000
0%
b0 (
b10000100 $
b0 3
00
b0 $
b11 8
b0 '
b0 *
b0 +
0,
0G
b0 D
1J
0H
1I
#1425000
b11001001010001100011 #
0B
b1000 >
b0 8
16
0&
0J
0I
#1435000
b10001100 (
b0 >
b11001001010001100011 '
b10010000 !
1/
b10010100 "
b0 #
b11001 )
b1000 +
1B
06
1&
1G
b10010000 D
1H
#1440000
b1000011 `
b1000100 _
b11111111111000000000111110010011 N
b11111111111000000000111110010011 E
#1445000
0G
b0 D
1J
0H
1I
#1455000
b11111111111000000000111110010011 #
0B
16
0&
0J
0I
#1465000
1%
0%
b10010000 (
b1000 $
b10001100 3
06
10
16
00
b10010100 $
b11111111111000000000111110010011 '
b10010100 !
0/
1,
b10011000 "
b0 #
b0 )
b11110 *
b11111 +
1B
06
1&
1G
b11 4
b10010100 D
1%
10
1H
#1470000
b1000100 `
b1000101 _
b100000011100010001100011 N
b100000011100010001100011 E
#1475000
0%
b0 (
b10001100 $
b0 3
00
b0 $
b11 7
b1 :
b0 '
b0 *
b0 +
0,
0G
b0 D
b0 4
b0 9
1J
0H
1I
#1485000
b100000011100010001100011 #
0B
b1000 >
b0 7
b0 :
16
b11 9
0&
0J
b11 =
0I
#1495000
b10010100 (
b0 >
b100000011100010001100011 '
b10011000 !
1/
b10011100 "
b0 #
b11 )
b1000 *
b1000 +
1B
06
1&
1G
b10011000 D
b0 =
1H
#1500000
b1000101 `
b1000110 _
b11111111110100000000111110010011 N
b11111111110100000000111110010011 E
#1505000
0G
b0 D
1J
0H
1I
#1515000
b11111111110100000000111110010011 #
0B
16
0&
0J
0I
#1525000
1%
0%
b10011000 (
b1000 $
b10010100 3
06
10
16
00
b10011100 $
b11111111110100000000111110010011 '
b10011100 !
0/
1,
b10100000 "
b0 #
b0 )
b11101 *
b11111 +
1B
06
1&
1G
b11111111111111111111111111110011 4
b10011100 D
1%
10
1H
#1530000
b1000110 `
b1000111 _
b1101000101010001100011 N
b1101000101010001100011 E
#1535000
0%
b0 (
b10010100 $
b0 3
00
b0 $
b11 8
b11111111111111111111111111110011 7
b100 :
b0 '
b0 *
b0 +
0,
0G
b0 D
b0 4
b0 9
1J
0H
1I
#1545000
b1101000101010001100011 #
0B
b1000 >
b0 8
b0 7
b0 :
16
b11 9
0&
0J
b11111111111111111111111111110011 =
0I
#1555000
b10011100 (
b0 >
b1101000101010001100011 '
b10100000 !
1/
b10100100 "
b0 #
b1000 )
b11 *
b1000 +
1B
06
1&
1G
b10100000 D
b0 =
1H
#1560000
b1000111 `
b100001000000 _
b11111111110000000000111110010011 N
b11111111110000000000111110010011 E
#1565000
0G
b0 D
1J
0H
1I
#1575000
b11111111110000000000111110010011 #
0B
16
0&
0J
0I
#1585000
1%
b10100000 (
b1000 $
b10011100 3
06
10
b10100100 $
b11111111110000000000111110010011 '
b10100100 !
0/
1,
b10101000 "
b0 #
b0 )
b11100 *
b11111 +
1B
1&
1G
b1101 4
b10100100 D
1H
#1590000
b100001000000 `
b100001000001 _
b1101000110010001100011 N
b1101000110010001100011 E
#1595000
0%
b0 (
b10011100 $
b0 3
00
b0 $
b11111111111111111111111111110110 8
b1101 7
b101 :
b0 '
b0 *
b0 +
0,
0G
b0 D
b0 4
b0 9
1J
0H
1I
#1605000
b1101000110010001100011 #
0B
b1000 >
b0 8
b0 7
b0 :
16
b11 9
0&
0J
b1101 =
0I
#1615000
b10100100 (
b0 >
b1101000110010001100011 '
b10101000 !
1/
b10101100 "
b0 #
b1000 )
b11 *
b1000 +
1B
06
1&
1G
b10101000 D
b0 =
1H
#1620000
b100001000001 `
b100001000010 _
b11111111101100000000111110010011 N
b11111111101100000000111110010011 E
#1625000
0G
b0 D
1J
0H
1I
#1635000
b11111111101100000000111110010011 #
0B
16
0&
0J
0I
#1645000
1%
b10101000 (
b1000 $
b10100100 3
06
10
b10101100 $
b11111111101100000000111110010011 '
b10101100 !
0/
1,
b10110000 "
b0 #
b0 )
b11011 *
b11111 +
1B
1&
1G
b1101 4
b10101100 D
1H
#1650000
b100001000010 `
b100001000011 _
b100000011111010001100011 N
b100000011111010001100011 E
#1655000
0%
b0 (
b10100100 $
b0 3
00
b0 $
b11111111111111111111111111110110 8
b1101 7
b110 :
b0 '
b0 *
b0 +
0,
0G
b0 D
b0 4
b0 9
1J
0H
1I
#1665000
b100000011111010001100011 #
0B
b1000 >
b0 8
b0 7
b0 :
16
b11 9
0&
0J
b1101 =
0I
#1675000
b10101100 (
b0 >
b100000011111010001100011 '
b10110000 !
1/
b10110100 "
b0 #
b11 )
b1000 *
b1000 +
1B
06
1&
1G
b10110000 D
b0 =
1H
#1680000
b100001000011 `
b100001000100 _
b11111111101000000000111110010011 N
b11111111101000000000111110010011 E
#1685000
0G
b0 D
1J
0H
1I
#1695000
b11111111101000000000111110010011 #
0B
16
0&
0J
0I
#1705000
1%
0%
b10110000 (
b1000 $
b10101100 3
06
10
16
00
b10110100 $
b11111111101000000000111110010011 '
b10110100 !
0/
1,
b10111000 "
b0 #
b0 )
b11010 *
b11111 +
1B
06
1&
1G
b11111111111111111111111111110011 4
b10110100 D
1%
10
1H
#1710000
b100001000100 `
b100001000101 _
b110000000000111111101111 N
b110000000000111111101111 E
#1715000
0%
b0 (
b10101100 $
b0 3
00
b0 $
b11 8
b11111111111111111111111111110011 7
b111 :
b0 '
b0 *
b0 +
0,
0G
b0 D
b0 4
b0 9
1J
0H
1I
#1725000
b110000000000111111101111 #
0B
b1000 >
b0 8
b0 7
b0 :
16
b11 9
0&
0J
b11111111111111111111111111110011 =
0I
#1735000
b10110100 (
b0 >
b110000000000111111101111 '
b10111000 !
1.
1,
b10111100 "
b0 #
b1100 *
b11111 +
1B
06
1&
1G
b10111000 D
b0 =
1H
#1740000
b100001000101 `
b100001000110 _
b11111111100100000000111110010011 N
b11111111100100000000111110010011 E
#1745000
0G
b0 D
1J
0H
1I
#1755000
b11111111100100000000111110010011 #
0B
16
0&
0J
0I
#1765000
1%
b10111000 (
b1100 $
b10110100 3
06
10
b11000000 $
b11111111100100000000111110010011 '
b10111100 !
0.
b11000000 "
b0 #
b11001 *
1B
1&
1G
b10 4
b10111100 D
1H
#1770000
b100001000110 `
b100001000111 _
b11111111100000000000111110010011 N
b11111111100000000000111110010011 E
#1775000
0%
b10 <
b0 (
b10110100 $
b0 3
00
b0 $
b10 8
b10 7
b0 '
b0 *
b0 +
0,
0G
b0 D
b0 4
b0 9
1J
0H
1I
#1785000
b0 <
b11111111100000000000111110010011 #
0B
b11111 >
b0 8
b0 7
1?
16
b11 9
0&
0J
b10111000 =
0I
