sim/out/legacy_sim.log
# vsim -c work.tb_riscv_pipeline_mega -do "run -all; quit -f" -l sim/out/legacy_sim.log 
# Start time: 10:16:35 on May 30,2026
# ** Note: (vsim-3812) Design is being optimized...
# //  Questa Sim-64
# //  Version 2021.2_1 linux_x86_64 May 15 2021
# //
# //  Copyright 1991-2021 Mentor Graphics Corporation
# //  All Rights Reserved.
# //
# //  QuestaSim and its associated documentation contain trade
# //  secrets and commercial or financial information that are the property of
# //  Mentor Graphics Corporation and are privileged, confidential,
# //  and exempt from disclosure under the Freedom of Information Act,
# //  5 U.S.C. Section 552. Furthermore, this information
# //  is prohibited from disclosure under the Trade Secrets Act,
# //  18 U.S.C. Section 1905.
# //
# Loading work.tb_riscv_pipeline_mega(fast)
# run -all
# ========================================
# DEBUG: memory[0] = 123450b7
# DEBUG: memory[1] = 00000117
# ========================================
# Time: 100000 | PC_F: 00000000
#   [I-CACHE MISS] Stalling pipeline to fetch Instruction at Addr: 00000000
# --------------------------------------------------
# 
# --- Cycle 1 ---
#   [IF]  PC = 00000000 | Instr = 00000000 >>> [STALL]
#   [ID]  PC = 00000000 | Instr = 00000000 | rs1=x0, rs2=x0, rd=x0 >>> [STALL]           
#   [EX]  PC = 00000000 | ALU_Out = 00000000 | rd=x0            
#   [MEM] ALU_Out/Addr = 00000000 | WriteData = 00000000 | ReadData = 00000000 | rd=x0 | MemWr=0
#   [WB]  Result = 00000000 | rd=x0 | RegWr=0
# 
# ========================================================
#    [MEGA TEST DEBUG] PIPELINE CYCLE-BY-CYCLE TRACE
# ========================================================
# Time: 110000 | PC_F: 00000000
#   [I-CACHE MISS] Stalling pipeline to fetch Instruction at Addr: 00000000
# --------------------------------------------------
# 
# --- Cycle 2 ---
#   [IF]  PC = 00000000 | Instr = 123450b7            
#   [ID]  PC = 00000000 | Instr = 00000000 | rs1=x0, rs2=x0, rd=x0                       
#   [EX]  PC = 00000000 | ALU_Out = 00000000 | rd=x0            
#   [MEM] ALU_Out/Addr = 00000000 | WriteData = 00000000 | ReadData = 00000000 | rd=x0 | MemWr=0
#   [WB]  Result = 00000000 | rd=x0 | RegWr=0
# Time: 120000 | PC_F: 00000000
#   [I-CACHE HIT]  Instruction fetched: 123450b7
# --------------------------------------------------
# 
# --- Cycle 3 ---
#   [IF]  PC = 00000004 | Instr = 00000000 >>> [STALL]
#   [ID]  PC = 00000000 | Instr = 123450b7 | rs1=x8, rs2=x3, rd=x1 >>> [STALL]           
#   [EX]  PC = 00000000 | ALU_Out = 00000000 | rd=x0            
#   [MEM] ALU_Out/Addr = 00000000 | WriteData = 00000000 | ReadData = 00000000 | rd=x0 | MemWr=0
#   [WB]  Result = 00000000 | rd=x0 | RegWr=0
# Time: 130000 | PC_F: 00000004
#   [I-CACHE MISS] Stalling pipeline to fetch Instruction at Addr: 00000004
# --------------------------------------------------
# 
# --- Cycle 4 ---
#   [IF]  PC = 00000004 | Instr = 00000000 >>> [STALL]
#   [ID]  PC = 00000000 | Instr = 123450b7 | rs1=x8, rs2=x3, rd=x1 >>> [STALL]           
#   [EX]  PC = 00000000 | ALU_Out = 00000000 | rd=x0            
#   [MEM] ALU_Out/Addr = 00000000 | WriteData = 00000000 | ReadData = 00000000 | rd=x0 | MemWr=0
#   [WB]  Result = 00000000 | rd=x0 | RegWr=0
# Time: 140000 | PC_F: 00000004
#   [I-CACHE MISS] Stalling pipeline to fetch Instruction at Addr: 00000004
# --------------------------------------------------
# 
# --- Cycle 5 ---
#   [IF]  PC = 00000004 | Instr = 00000117            
#   [ID]  PC = 00000000 | Instr = 123450b7 | rs1=x8, rs2=x3, rd=x1                       
#   [EX]  PC = 00000000 | ALU_Out = 00000000 | rd=x0            
#   [MEM] ALU_Out/Addr = 00000000 | WriteData = 00000000 | ReadData = 00000000 | rd=x0 | MemWr=0
#   [WB]  Result = 00000000 | rd=x0 | RegWr=0
# Time: 150000 | PC_F: 00000004
#   [I-CACHE HIT]  Instruction fetched: 00000117
# --------------------------------------------------
# 
# --- Cycle 6 ---
#   [IF]  PC = 00000008 | Instr = 00000000 >>> [STALL]
#   [ID]  PC = 00000004 | Instr = 00000117 | rs1=x0, rs2=x0, rd=x2 >>> [STALL]           
#   [EX]  PC = 00000000 | ALU_Out = 12345000 | rd=x1            
#   [MEM] ALU_Out/Addr = 00000000 | WriteData = 00000000 | ReadData = 00000000 | rd=x0 | MemWr=0
#   [WB]  Result = 00000000 | rd=x0 | RegWr=0
# Time: 160000 | PC_F: 00000008
#   [I-CACHE MISS] Stalling pipeline to fetch Instruction at Addr: 00000008
# --------------------------------------------------
# 
# --- Cycle 7 ---
#   [IF]  PC = 00000008 | Instr = 00000000 >>> [STALL]
#   [ID]  PC = 00000004 | Instr = 00000117 | rs1=x0, rs2=x0, rd=x2 >>> [STALL]           
#   [EX]  PC = 00000000 | ALU_Out = 00000000 | rd=x0            
#   [MEM] ALU_Out/Addr = 12345000 | WriteData = 00000000 | ReadData = 00000000 | rd=x1 | MemWr=0
#   [WB]  Result = 00000000 | rd=x0 | RegWr=0
# Time: 170000 | PC_F: 00000008
#   [I-CACHE MISS] Stalling pipeline to fetch Instruction at Addr: 00000008
# --------------------------------------------------
# 
# --- Cycle 8 ---
#   [IF]  PC = 00000008 | Instr = ff600193            
#   [ID]  PC = 00000004 | Instr = 00000117 | rs1=x0, rs2=x0, rd=x2                       
#   [EX]  PC = 00000000 | ALU_Out = 00000000 | rd=x0            
#   [MEM] ALU_Out/Addr = 00000000 | WriteData = 00000000 | ReadData = 00000000 | rd=x0 | MemWr=0
#   [WB]  Result = 12345000 | rd=x1 | RegWr=1
# Time: 180000 | PC_F: 00000008
#   [I-CACHE HIT]  Instruction fetched: ff600193
# --------------------------------------------------
# 
# --- Cycle 9 ---
#   [IF]  PC = 0000000c | Instr = 00000000 >>> [STALL]
#   [ID]  PC = 00000008 | Instr = ff600193 | rs1=x0, rs2=x22, rd=x3 >>> [STALL]           
#   [EX]  PC = 00000004 | ALU_Out = 00000004 | rd=x2            
#   [MEM] ALU_Out/Addr = 00000000 | WriteData = 00000000 | ReadData = 00000000 | rd=x0 | MemWr=0
#   [WB]  Result = 00000000 | rd=x0 | RegWr=0
# Time: 190000 | PC_F: 0000000c
#   [I-CACHE MISS] Stalling pipeline to fetch Instruction at Addr: 0000000c
# --------------------------------------------------
# 
# --- Cycle 10 ---
#   [IF]  PC = 0000000c | Instr = 00000000 >>> [STALL]
#   [ID]  PC = 00000008 | Instr = ff600193 | rs1=x0, rs2=x22, rd=x3 >>> [STALL]           
#   [EX]  PC = 00000000 | ALU_Out = 00000000 | rd=x0            
#   [MEM] ALU_Out/Addr = 00000004 | WriteData = 00000000 | ReadData = 00000000 | rd=x2 | MemWr=0
#   [WB]  Result = 00000000 | rd=x0 | RegWr=0
# Time: 200000 | PC_F: 0000000c
#   [I-CACHE MISS] Stalling pipeline to fetch Instruction at Addr: 0000000c
# --------------------------------------------------
# 
# --- Cycle 11 ---
#   [IF]  PC = 0000000c | Instr = 00f1c213            
#   [ID]  PC = 00000008 | Instr = ff600193 | rs1=x0, rs2=x22, rd=x3                       
#   [EX]  PC = 00000000 | ALU_Out = 00000000 | rd=x0            
#   [MEM] ALU_Out/Addr = 00000000 | WriteData = 00000000 | ReadData = 00000000 | rd=x0 | MemWr=0
#   [WB]  Result = 00000004 | rd=x2 | RegWr=1
# Time: 210000 | PC_F: 0000000c
#   [I-CACHE HIT]  Instruction fetched: 00f1c213
# --------------------------------------------------
# 
# --- Cycle 12 ---
#   [IF]  PC = 00000010 | Instr = 00000000 >>> [STALL]
#   [ID]  PC = 0000000c | Instr = 00f1c213 | rs1=x3, rs2=x15, rd=x4 >>> [STALL]           
#   [EX]  PC = 00000008 | ALU_Out = fffffff6 | rd=x3            
#   [MEM] ALU_Out/Addr = 00000000 | WriteData = 00000000 | ReadData = 00000000 | rd=x0 | MemWr=0
#   [WB]  Result = 00000000 | rd=x0 | RegWr=0
# Time: 220000 | PC_F: 00000010
#   [I-CACHE MISS] Stalling pipeline to fetch Instruction at Addr: 00000010
# --------------------------------------------------
# 
# --- Cycle 13 ---
#   [IF]  PC = 00000010 | Instr = 00000000 >>> [STALL]
#   [ID]  PC = 0000000c | Instr = 00f1c213 | rs1=x3, rs2=x15, rd=x4 >>> [STALL]           
#   [EX]  PC = 00000000 | ALU_Out = 00000000 | rd=x0            
#   [MEM] ALU_Out/Addr = fffffff6 | WriteData = 00000000 | ReadData = 00000000 | rd=x3 | MemWr=0
#   [WB]  Result = 00000000 | rd=x0 | RegWr=0
# Time: 230000 | PC_F: 00000010
#   [I-CACHE MISS] Stalling pipeline to fetch Instruction at Addr: 00000010
# --------------------------------------------------
# 
# --- Cycle 14 ---
#   [IF]  PC = 00000010 | Instr = 00f06293            
#   [ID]  PC = 0000000c | Instr = 00f1c213 | rs1=x3, rs2=x15, rd=x4                       
#   [EX]  PC = 00000000 | ALU_Out = 00000000 | rd=x0            
#   [MEM] ALU_Out/Addr = 00000000 | WriteData = 00000000 | ReadData = 00000000 | rd=x0 | MemWr=0
#   [WB]  Result = fffffff6 | rd=x3 | RegWr=1
# Time: 240000 | PC_F: 00000010
#   [I-CACHE HIT]  Instruction fetched: 00f06293
# --------------------------------------------------
# 
# --- Cycle 15 ---
#   [IF]  PC = 00000014 | Instr = 00000000 >>> [STALL]
#   [ID]  PC = 00000010 | Instr = 00f06293 | rs1=x0, rs2=x15, rd=x5 >>> [STALL]           
#   [EX]  PC = 0000000c | ALU_Out = fffffff9 | rd=x4            
#   [MEM] ALU_Out/Addr = 00000000 | WriteData = 00000000 | ReadData = 00000000 | rd=x0 | MemWr=0
#   [WB]  Result = 00000000 | rd=x0 | RegWr=0
# Time: 250000 | PC_F: 00000014
#   [I-CACHE MISS] Stalling pipeline to fetch Instruction at Addr: 00000014
# --------------------------------------------------
# 
# --- Cycle 16 ---
#   [IF]  PC = 00000014 | Instr = 00000000 >>> [STALL]
#   [ID]  PC = 00000010 | Instr = 00f06293 | rs1=x0, rs2=x15, rd=x5 >>> [STALL]           
#   [EX]  PC = 00000000 | ALU_Out = 00000000 | rd=x0            
#   [MEM] ALU_Out/Addr = fffffff9 | WriteData = 00000000 | ReadData = 00000000 | rd=x4 | MemWr=0
#   [WB]  Result = 00000000 | rd=x0 | RegWr=0
# Time: 260000 | PC_F: 00000014
#   [I-CACHE MISS] Stalling pipeline to fetch Instruction at Addr: 00000014
# --------------------------------------------------
# 
# --- Cycle 17 ---
#   [IF]  PC = 00000014 | Instr = 00f2f313            
#   [ID]  PC = 00000010 | Instr = 00f06293 | rs1=x0, rs2=x15, rd=x5                       
#   [EX]  PC = 00000000 | ALU_Out = 00000000 | rd=x0            
#   [MEM] ALU_Out/Addr = 00000000 | WriteData = 00000000 | ReadData = 00000000 | rd=x0 | MemWr=0
#   [WB]  Result = fffffff9 | rd=x4 | RegWr=1
# Time: 270000 | PC_F: 00000014
#   [I-CACHE HIT]  Instruction fetched: 00f2f313
# --------------------------------------------------
# 
# --- Cycle 18 ---
#   [IF]  PC = 00000018 | Instr = 00000000 >>> [STALL]
#   [ID]  PC = 00000014 | Instr = 00f2f313 | rs1=x5, rs2=x15, rd=x6 >>> [STALL]           
#   [EX]  PC = 00000010 | ALU_Out = 0000000f | rd=x5            
#   [MEM] ALU_Out/Addr = 00000000 | WriteData = 00000000 | ReadData = 00000000 | rd=x0 | MemWr=0
#   [WB]  Result = 00000000 | rd=x0 | RegWr=0
# Time: 280000 | PC_F: 00000018
#   [I-CACHE MISS] Stalling pipeline to fetch Instruction at Addr: 00000018
# --------------------------------------------------
# 
# --- Cycle 19 ---
#   [IF]  PC = 00000018 | Instr = 00000000 >>> [STALL]
#   [ID]  PC = 00000014 | Instr = 00f2f313 | rs1=x5, rs2=x15, rd=x6 >>> [STALL]           
#   [EX]  PC = 00000000 | ALU_Out = 00000000 | rd=x0            
#   [MEM] ALU_Out/Addr = 0000000f | WriteData = 00000000 | ReadData = 00000000 | rd=x5 | MemWr=0
#   [WB]  Result = 00000000 | rd=x0 | RegWr=0
# Time: 290000 | PC_F: 00000018
#   [I-CACHE MISS] Stalling pipeline to fetch Instruction at Addr: 00000018
# --------------------------------------------------
# 
# --- Cycle 20 ---
#   [IF]  PC = 00000018 | Instr = 003203b3            
#   [ID]  PC = 00000014 | Instr = 00f2f313 | rs1=x5, rs2=x15, rd=x6                       
#   [EX]  PC = 00000000 | ALU_Out = 00000000 | rd=x0            
#   [MEM] ALU_Out/Addr = 00000000 | WriteData = 00000000 | ReadData = 00000000 | rd=x0 | MemWr=0
#   [WB]  Result = 0000000f | rd=x5 | RegWr=1
# Time: 300000 | PC_F: 00000018
#   [I-CACHE HIT]  Instruction fetched: 003203b3
# --------------------------------------------------
# 
# --- Cycle 21 ---
#   [IF]  PC = 0000001c | Instr = 00000000 >>> [STALL]
#   [ID]  PC = 00000018 | Instr = 003203b3 | rs1=x4, rs2=x3, rd=x7 >>> [STALL]           
#   [EX]  PC = 00000014 | ALU_Out = 0000000f | rd=x6            
#   [MEM] ALU_Out/Addr = 00000000 | WriteData = 00000000 | ReadData = 00000000 | rd=x0 | MemWr=0
#   [WB]  Result = 00000000 | rd=x0 | RegWr=0
# Time: 310000 | PC_F: 0000001c
#   [I-CACHE MISS] Stalling pipeline to fetch Instruction at Addr: 0000001c
# --------------------------------------------------
# 
# --- Cycle 22 ---
#   [IF]  PC = 0000001c | Instr = 00000000 >>> [STALL]
#   [ID]  PC = 00000018 | Instr = 003203b3 | rs1=x4, rs2=x3, rd=x7 >>> [STALL]           
#   [EX]  PC = 00000000 | ALU_Out = 00000000 | rd=x0            
#   [MEM] ALU_Out/Addr = 0000000f | WriteData = 00000000 | ReadData = 00000000 | rd=x6 | MemWr=0
#   [WB]  Result = 00000000 | rd=x0 | RegWr=0
# Time: 320000 | PC_F: 0000001c
#   [I-CACHE MISS] Stalling pipeline to fetch Instruction at Addr: 0000001c
# --------------------------------------------------
# 
# --- Cycle 23 ---
#   [IF]  PC = 0000001c | Instr = 40320433            
#   [ID]  PC = 00000018 | Instr = 003203b3 | rs1=x4, rs2=x3, rd=x7                       
#   [EX]  PC = 00000000 | ALU_Out = 00000000 | rd=x0            
#   [MEM] ALU_Out/Addr = 00000000 | WriteData = 00000000 | ReadData = 00000000 | rd=x0 | MemWr=0
#   [WB]  Result = 0000000f | rd=x6 | RegWr=1
# Time: 330000 | PC_F: 0000001c
#   [I-CACHE HIT]  Instruction fetched: 40320433
# --------------------------------------------------
# 
# --- Cycle 24 ---
#   [IF]  PC = 00000020 | Instr = 00000000 >>> [STALL]
#   [ID]  PC = 0000001c | Instr = 40320433 | rs1=x4, rs2=x3, rd=x8 >>> [STALL]           
#   [EX]  PC = 00000018 | ALU_Out = ffffffef | rd=x7            
#   [MEM] ALU_Out/Addr = 00000000 | WriteData = 00000000 | ReadData = 00000000 | rd=x0 | MemWr=0
#   [WB]  Result = 00000000 | rd=x0 | RegWr=0
# Time: 340000 | PC_F: 00000020
#   [I-CACHE MISS] Stalling pipeline to fetch Instruction at Addr: 00000020
# --------------------------------------------------
# 
# --- Cycle 25 ---
#   [IF]  PC = 00000020 | Instr = 00000000 >>> [STALL]
#   [ID]  PC = 0000001c | Instr = 40320433 | rs1=x4, rs2=x3, rd=x8 >>> [STALL]           
#   [EX]  PC = 00000000 | ALU_Out = 00000000 | rd=x0            
#   [MEM] ALU_Out/Addr = ffffffef | WriteData = fffffff6 | ReadData = 00000000 | rd=x7 | MemWr=0
#   [WB]  Result = 00000000 | rd=x0 | RegWr=0
# Time: 350000 | PC_F: 00000020
#   [I-CACHE MISS] Stalling pipeline to fetch Instruction at Addr: 00000020
# --------------------------------------------------
# 
# --- Cycle 26 ---
#   [IF]  PC = 00000020 | Instr = 0053f4b3            
#   [ID]  PC = 0000001c | Instr = 40320433 | rs1=x4, rs2=x3, rd=x8                       
#   [EX]  PC = 00000000 | ALU_Out = 00000000 | rd=x0            
#   [MEM] ALU_Out/Addr = 00000000 | WriteData = 00000000 | ReadData = 00000000 | rd=x0 | MemWr=0
#   [WB]  Result = ffffffef | rd=x7 | RegWr=1
# Time: 360000 | PC_F: 00000020
#   [I-CACHE HIT]  Instruction fetched: 0053f4b3
# --------------------------------------------------
# 
# --- Cycle 27 ---
#   [IF]  PC = 00000024 | Instr = 00000000 >>> [STALL]
#   [ID]  PC = 00000020 | Instr = 0053f4b3 | rs1=x7, rs2=x5, rd=x9 >>> [STALL]           
#   [EX]  PC = 0000001c | ALU_Out = 00000003 | rd=x8            
#   [MEM] ALU_Out/Addr = 00000000 | WriteData = 00000000 | ReadData = 00000000 | rd=x0 | MemWr=0
#   [WB]  Result = 00000000 | rd=x0 | RegWr=0
# Time: 370000 | PC_F: 00000024
#   [I-CACHE MISS] Stalling pipeline to fetch Instruction at Addr: 00000024
# --------------------------------------------------
# 
# --- Cycle 28 ---
#   [IF]  PC = 00000024 | Instr = 00000000 >>> [STALL]
#   [ID]  PC = 00000020 | Instr = 0053f4b3 | rs1=x7, rs2=x5, rd=x9 >>> [STALL]           
#   [EX]  PC = 00000000 | ALU_Out = 00000000 | rd=x0            
#   [MEM] ALU_Out/Addr = 00000003 | WriteData = fffffff6 | ReadData = 00000000 | rd=x8 | MemWr=0
#   [WB]  Result = 00000000 | rd=x0 | RegWr=0
# Time: 380000 | PC_F: 00000024
#   [I-CACHE MISS] Stalling pipeline to fetch Instruction at Addr: 00000024
# --------------------------------------------------
# 
# --- Cycle 29 ---
#   [IF]  PC = 00000024 | Instr = 00836533            
#   [ID]  PC = 00000020 | Instr = 0053f4b3 | rs1=x7, rs2=x5, rd=x9                       
#   [EX]  PC = 00000000 | ALU_Out = 00000000 | rd=x0            
#   [MEM] ALU_Out/Addr = 00000000 | WriteData = 00000000 | ReadData = 00000000 | rd=x0 | MemWr=0
#   [WB]  Result = 00000003 | rd=x8 | RegWr=1
# Time: 390000 | PC_F: 00000024
#   [I-CACHE HIT]  Instruction fetched: 00836533
# --------------------------------------------------
# 
# --- Cycle 30 ---
#   [IF]  PC = 00000028 | Instr = 00000000 >>> [STALL]
#   [ID]  PC = 00000024 | Instr = 00836533 | rs1=x6, rs2=x8, rd=x10 >>> [STALL]           
#   [EX]  PC = 00000020 | ALU_Out = 0000000f | rd=x9            
#   [MEM] ALU_Out/Addr = 00000000 | WriteData = 00000000 | ReadData = 00000000 | rd=x0 | MemWr=0
#   [WB]  Result = 00000000 | rd=x0 | RegWr=0
# Time: 400000 | PC_F: 00000028
#   [I-CACHE MISS] Stalling pipeline to fetch Instruction at Addr: 00000028
# --------------------------------------------------
# 
# --- Cycle 31 ---
#   [IF]  PC = 00000028 | Instr = 00000000 >>> [STALL]
#   [ID]  PC = 00000024 | Instr = 00836533 | rs1=x6, rs2=x8, rd=x10 >>> [STALL]           
#   [EX]  PC = 00000000 | ALU_Out = 00000000 | rd=x0            
#   [MEM] ALU_Out/Addr = 0000000f | WriteData = 0000000f | ReadData = 00000000 | rd=x9 | MemWr=0
#   [WB]  Result = 00000000 | rd=x0 | RegWr=0
# Time: 410000 | PC_F: 00000028
#   [I-CACHE MISS] Stalling pipeline to fetch Instruction at Addr: 00000028
# --------------------------------------------------
# 
# --- Cycle 32 ---
#   [IF]  PC = 00000028 | Instr = 008545b3            
#   [ID]  PC = 00000024 | Instr = 00836533 | rs1=x6, rs2=x8, rd=x10                       
#   [EX]  PC = 00000000 | ALU_Out = 00000000 | rd=x0            
#   [MEM] ALU_Out/Addr = 00000000 | WriteData = 00000000 | ReadData = 00000000 | rd=x0 | MemWr=0
#   [WB]  Result = 0000000f | rd=x9 | RegWr=1
# Time: 420000 | PC_F: 00000028
#   [I-CACHE HIT]  Instruction fetched: 008545b3
# --------------------------------------------------
# 
# --- Cycle 33 ---
#   [IF]  PC = 0000002c | Instr = 00000000 >>> [STALL]
#   [ID]  PC = 00000028 | Instr = 008545b3 | rs1=x10, rs2=x8, rd=x11 >>> [STALL]           
#   [EX]  PC = 00000024 | ALU_Out = 0000000f | rd=x10            
#   [MEM] ALU_Out/Addr = 00000000 | WriteData = 00000000 | ReadData = 00000000 | rd=x0 | MemWr=0
#   [WB]  Result = 00000000 | rd=x0 | RegWr=0
# Time: 430000 | PC_F: 0000002c
#   [I-CACHE MISS] Stalling pipeline to fetch Instruction at Addr: 0000002c
# --------------------------------------------------
# 
# --- Cycle 34 ---
#   [IF]  PC = 0000002c | Instr = 00000000 >>> [STALL]
#   [ID]  PC = 00000028 | Instr = 008545b3 | rs1=x10, rs2=x8, rd=x11 >>> [STALL]           
#   [EX]  PC = 00000000 | ALU_Out = 00000000 | rd=x0            
#   [MEM] ALU_Out/Addr = 0000000f | WriteData = 00000003 | ReadData = 00000000 | rd=x10 | MemWr=0
#   [WB]  Result = 00000000 | rd=x0 | RegWr=0
# Time: 440000 | PC_F: 0000002c
#   [I-CACHE MISS] Stalling pipeline to fetch Instruction at Addr: 0000002c
# --------------------------------------------------
# 
# --- Cycle 35 ---
#   [IF]  PC = 0000002c | Instr = 00200613            
#   [ID]  PC = 00000028 | Instr = 008545b3 | rs1=x10, rs2=x8, rd=x11                       
#   [EX]  PC = 00000000 | ALU_Out = 00000000 | rd=x0            
#   [MEM] ALU_Out/Addr = 00000000 | WriteData = 00000000 | ReadData = 00000000 | rd=x0 | MemWr=0
#   [WB]  Result = 0000000f | rd=x10 | RegWr=1
# Time: 450000 | PC_F: 0000002c
#   [I-CACHE HIT]  Instruction fetched: 00200613
# --------------------------------------------------
# 
# --- Cycle 36 ---
#   [IF]  PC = 00000030 | Instr = 00000000 >>> [STALL]
#   [ID]  PC = 0000002c | Instr = 00200613 | rs1=x0, rs2=x2, rd=x12 >>> [STALL]           
#   [EX]  PC = 00000028 | ALU_Out = 0000000c | rd=x11            
#   [MEM] ALU_Out/Addr = 00000000 | WriteData = 00000000 | ReadData = 00000000 | rd=x0 | MemWr=0
#   [WB]  Result = 00000000 | rd=x0 | RegWr=0
# Time: 460000 | PC_F: 00000030
#   [I-CACHE MISS] Stalling pipeline to fetch Instruction at Addr: 00000030
# --------------------------------------------------
# 
# --- Cycle 37 ---
#   [IF]  PC = 00000030 | Instr = 00000000 >>> [STALL]
#   [ID]  PC = 0000002c | Instr = 00200613 | rs1=x0, rs2=x2, rd=x12 >>> [STALL]           
#   [EX]  PC = 00000000 | ALU_Out = 00000000 | rd=x0            
#   [MEM] ALU_Out/Addr = 0000000c | WriteData = 00000003 | ReadData = 00000000 | rd=x11 | MemWr=0
#   [WB]  Result = 00000000 | rd=x0 | RegWr=0
# Time: 470000 | PC_F: 00000030
#   [I-CACHE MISS] Stalling pipeline to fetch Instruction at Addr: 00000030
# --------------------------------------------------
# 
# --- Cycle 38 ---
#   [IF]  PC = 00000030 | Instr = 00261693            
#   [ID]  PC = 0000002c | Instr = 00200613 | rs1=x0, rs2=x2, rd=x12                       
#   [EX]  PC = 00000000 | ALU_Out = 00000000 | rd=x0            
#   [MEM] ALU_Out/Addr = 00000000 | WriteData = 00000000 | ReadData = 00000000 | rd=x0 | MemWr=0
#   [WB]  Result = 0000000c | rd=x11 | RegWr=1
# Time: 480000 | PC_F: 00000030
#   [I-CACHE HIT]  Instruction fetched: 00261693
# --------------------------------------------------
# 
# --- Cycle 39 ---
#   [IF]  PC = 00000034 | Instr = 00000000 >>> [STALL]
#   [ID]  PC = 00000030 | Instr = 00261693 | rs1=x12, rs2=x2, rd=x13 >>> [STALL]           
#   [EX]  PC = 0000002c | ALU_Out = 00000002 | rd=x12            
#   [MEM] ALU_Out/Addr = 00000000 | WriteData = 00000000 | ReadData = 00000000 | rd=x0 | MemWr=0
#   [WB]  Result = 00000000 | rd=x0 | RegWr=0
# Time: 490000 | PC_F: 00000034
#   [I-CACHE MISS] Stalling pipeline to fetch Instruction at Addr: 00000034
# --------------------------------------------------
# 
# --- Cycle 40 ---
#   [IF]  PC = 00000034 | Instr = 00000000 >>> [STALL]
#   [ID]  PC = 00000030 | Instr = 00261693 | rs1=x12, rs2=x2, rd=x13 >>> [STALL]           
#   [EX]  PC = 00000000 | ALU_Out = 00000000 | rd=x0            
#   [MEM] ALU_Out/Addr = 00000002 | WriteData = 00000004 | ReadData = 00000000 | rd=x12 | MemWr=0
#   [WB]  Result = 00000000 | rd=x0 | RegWr=0
# Time: 500000 | PC_F: 00000034
#   [I-CACHE MISS] Stalling pipeline to fetch Instruction at Addr: 00000034
# --------------------------------------------------
# 
# --- Cycle 41 ---
#   [IF]  PC = 00000034 | Instr = 00139713            
#   [ID]  PC = 00000030 | Instr = 00261693 | rs1=x12, rs2=x2, rd=x13                       
#   [EX]  PC = 00000000 | ALU_Out = 00000000 | rd=x0            
#   [MEM] ALU_Out/Addr = 00000000 | WriteData = 00000000 | ReadData = 00000000 | rd=x0 | MemWr=0
#   [WB]  Result = 00000002 | rd=x12 | RegWr=1
# Time: 510000 | PC_F: 00000034
#   [I-CACHE HIT]  Instruction fetched: 00139713
# --------------------------------------------------
# 
# --- Cycle 42 ---
#   [IF]  PC = 00000038 | Instr = 00000000 >>> [STALL]
#   [ID]  PC = 00000034 | Instr = 00139713 | rs1=x7, rs2=x1, rd=x14 >>> [STALL]           
#   [EX]  PC = 00000030 | ALU_Out = 00000008 | rd=x13            
#   [MEM] ALU_Out/Addr = 00000000 | WriteData = 00000000 | ReadData = 00000000 | rd=x0 | MemWr=0
#   [WB]  Result = 00000000 | rd=x0 | RegWr=0
# Time: 520000 | PC_F: 00000038
#   [I-CACHE MISS] Stalling pipeline to fetch Instruction at Addr: 00000038
# --------------------------------------------------
# 
# --- Cycle 43 ---
#   [IF]  PC = 00000038 | Instr = 00000000 >>> [STALL]
#   [ID]  PC = 00000034 | Instr = 00139713 | rs1=x7, rs2=x1, rd=x14 >>> [STALL]           
#   [EX]  PC = 00000000 | ALU_Out = 00000000 | rd=x0            
#   [MEM] ALU_Out/Addr = 00000008 | WriteData = 00000004 | ReadData = 00000000 | rd=x13 | MemWr=0
#   [WB]  Result = 00000000 | rd=x0 | RegWr=0
# Time: 530000 | PC_F: 00000038
#   [I-CACHE MISS] Stalling pipeline to fetch Instruction at Addr: 00000038
# --------------------------------------------------
# 
# --- Cycle 44 ---
#   [IF]  PC = 00000038 | Instr = 00175793            
#   [ID]  PC = 00000034 | Instr = 00139713 | rs1=x7, rs2=x1, rd=x14                       
#   [EX]  PC = 00000000 | ALU_Out = 00000000 | rd=x0            
#   [MEM] ALU_Out/Addr = 00000000 | WriteData = 00000000 | ReadData = 00000000 | rd=x0 | MemWr=0
#   [WB]  Result = 00000008 | rd=x13 | RegWr=1
# Time: 540000 | PC_F: 00000038
#   [I-CACHE HIT]  Instruction fetched: 00175793
# --------------------------------------------------
# 
# --- Cycle 45 ---
#   [IF]  PC = 0000003c | Instr = 00000000 >>> [STALL]
#   [ID]  PC = 00000038 | Instr = 00175793 | rs1=x14, rs2=x1, rd=x15 >>> [STALL]           
#   [EX]  PC = 00000034 | ALU_Out = ffffffde | rd=x14            
#   [MEM] ALU_Out/Addr = 00000000 | WriteData = 00000000 | ReadData = 00000000 | rd=x0 | MemWr=0
#   [WB]  Result = 00000000 | rd=x0 | RegWr=0
# Time: 550000 | PC_F: 0000003c
#   [I-CACHE MISS] Stalling pipeline to fetch Instruction at Addr: 0000003c
# --------------------------------------------------
# 
# --- Cycle 46 ---
#   [IF]  PC = 0000003c | Instr = 00000000 >>> [STALL]
#   [ID]  PC = 00000038 | Instr = 00175793 | rs1=x14, rs2=x1, rd=x15 >>> [STALL]           
#   [EX]  PC = 00000000 | ALU_Out = 00000000 | rd=x0            
#   [MEM] ALU_Out/Addr = ffffffde | WriteData = 12345000 | ReadData = 00000000 | rd=x14 | MemWr=0
#   [WB]  Result = 00000000 | rd=x0 | RegWr=0
# Time: 560000 | PC_F: 0000003c
#   [I-CACHE MISS] Stalling pipeline to fetch Instruction at Addr: 0000003c
# --------------------------------------------------
# 
# --- Cycle 47 ---
#   [IF]  PC = 0000003c | Instr = 40175813            
#   [ID]  PC = 00000038 | Instr = 00175793 | rs1=x14, rs2=x1, rd=x15                       
#   [EX]  PC = 00000000 | ALU_Out = 00000000 | rd=x0            
#   [MEM] ALU_Out/Addr = 00000000 | WriteData = 00000000 | ReadData = 00000000 | rd=x0 | MemWr=0
#   [WB]  Result = ffffffde | rd=x14 | RegWr=1
# Time: 570000 | PC_F: 0000003c
#   [I-CACHE HIT]  Instruction fetched: 40175813
# --------------------------------------------------
# 
# --- Cycle 48 ---
#   [IF]  PC = 00000040 | Instr = 00000000 >>> [STALL]
#   [ID]  PC = 0000003c | Instr = 40175813 | rs1=x14, rs2=x1, rd=x16 >>> [STALL]           
#   [EX]  PC = 00000038 | ALU_Out = 7fffffef | rd=x15            
#   [MEM] ALU_Out/Addr = 00000000 | WriteData = 00000000 | ReadData = 00000000 | rd=x0 | MemWr=0
#   [WB]  Result = 00000000 | rd=x0 | RegWr=0
# Time: 580000 | PC_F: 00000040
#   [I-CACHE MISS] Stalling pipeline to fetch Instruction at Addr: 00000040
# --------------------------------------------------
# 
# --- Cycle 49 ---
#   [IF]  PC = 00000040 | Instr = 00000000 >>> [STALL]
#   [ID]  PC = 0000003c | Instr = 40175813 | rs1=x14, rs2=x1, rd=x16 >>> [STALL]           
#   [EX]  PC = 00000000 | ALU_Out = 00000000 | rd=x0            
#   [MEM] ALU_Out/Addr = 7fffffef | WriteData = 12345000 | ReadData = 00000000 | rd=x15 | MemWr=0
#   [WB]  Result = 00000000 | rd=x0 | RegWr=0
# Time: 590000 | PC_F: 00000040
#   [I-CACHE MISS] Stalling pipeline to fetch Instruction at Addr: 00000040
# --------------------------------------------------
# 
# --- Cycle 50 ---
#   [IF]  PC = 00000040 | Instr = 00c618b3            
